ID,Date,Hour,Temperature(°C),Humidity(%),Wind speed (m/s),Visibility (10m),Dew point temperature(°C),Solar Radiation (MJ/m2),Rainfall(mm),Snowfall (cm),Seasons,Holiday,Functioning Day
7896,26/10/2018,0,12.5,57,0.9,1877,4.1,0,0,0,Autumn,No Holiday,Yes
7897,26/10/2018,1,12.7,56,1.2,1952,4.1,0,0,0,Autumn,No Holiday,Yes
7898,26/10/2018,2,12.8,59,0.9,1804,4.9,0,0,0,Autumn,No Holiday,Yes
7899,26/10/2018,3,12.8,57,0.5,1715,4.4,0,0,0,Autumn,No Holiday,Yes
7900,26/10/2018,4,12.6,60,0.6,1648,5,0,0,0,Autumn,No Holiday,Yes
7901,26/10/2018,5,12.4,60,0.8,1563,4.8,0,0,0,Autumn,No Holiday,Yes
7902,26/10/2018,6,12.6,64,1.3,1348,5.9,0,0,0,Autumn,No Holiday,Yes
7903,26/10/2018,7,12.6,63,0.8,1265,5.7,0,0,0,Autumn,No Holiday,Yes
7904,26/10/2018,8,12.1,81,0.8,706,8.9,0,0.5,0,Autumn,No Holiday,Yes
7905,26/10/2018,9,12,86,0.8,405,9.7,0.07,0.5,0,Autumn,No Holiday,Yes
7906,26/10/2018,10,12.9,84,1,534,10.2,0.27,0,0,Autumn,No Holiday,Yes
7907,26/10/2018,11,12.4,87,1,317,10.2,0.24,1,0,Autumn,No Holiday,Yes
7908,26/10/2018,12,12.4,90,1.1,297,10.7,0.19,1,0,Autumn,No Holiday,Yes
7909,26/10/2018,13,12.6,87,2.3,539,10.4,0.13,1.5,0,Autumn,No Holiday,Yes
7910,26/10/2018,14,12.7,95,1.9,255,11.9,0.09,5.5,0,Autumn,No Holiday,Yes
7911,26/10/2018,15,14,87,1.2,1482,11.8,0.68,1,0,Autumn,No Holiday,Yes
7912,26/10/2018,16,14.5,81,1.8,1588,11.2,0.78,0,0,Autumn,No Holiday,Yes
7913,26/10/2018,17,14.3,77,2.9,1966,10.3,0.5,0,0,Autumn,No Holiday,Yes
7914,26/10/2018,18,13.1,74,1.6,1989,8.5,0.05,0,0,Autumn,No Holiday,Yes
7915,26/10/2018,19,12.9,66,2.5,1997,6.6,0,0,0,Autumn,No Holiday,Yes
7916,26/10/2018,20,12.2,67,5.4,1956,6.2,0,0,0,Autumn,No Holiday,Yes
7917,26/10/2018,21,10.6,70,2.4,2000,5.3,0,0,0,Autumn,No Holiday,Yes
7918,26/10/2018,22,10.5,72,2.4,2000,5.6,0,0,0,Autumn,No Holiday,Yes
7919,26/10/2018,23,10.2,64,3.9,2000,3.6,0,0,0,Autumn,No Holiday,Yes
7920,27/10/2018,0,9.9,65,3.2,2000,3.6,0,0,0,Autumn,No Holiday,Yes
7921,27/10/2018,1,9.9,62,3.5,2000,2.9,0,0,0,Autumn,No Holiday,Yes
7922,27/10/2018,2,9.5,58,3,2000,1.6,0,0,0,Autumn,No Holiday,Yes
7923,27/10/2018,3,9.1,60,2.8,2000,1.7,0,0,0,Autumn,No Holiday,Yes
7924,27/10/2018,4,8.8,61,2.8,2000,1.6,0,0,0,Autumn,No Holiday,Yes
7925,27/10/2018,5,8,65,1.6,2000,1.8,0,0,0,Autumn,No Holiday,Yes
7926,27/10/2018,6,7.4,66,2.3,2000,1.4,0,0,0,Autumn,No Holiday,Yes
7927,27/10/2018,7,7.3,65,3.2,2000,1.1,0,0,0,Autumn,No Holiday,Yes
7928,27/10/2018,8,7.7,62,2.4,1985,0.8,0.23,0,0,Autumn,No Holiday,Yes
7929,27/10/2018,9,8.3,55,4,1853,-0.2,0.89,0,0,Autumn,No Holiday,Yes
7930,27/10/2018,10,9.5,46,3.7,1871,-1.5,1.49,0,0,Autumn,No Holiday,Yes
7931,27/10/2018,11,10.4,42,4.1,1988,-1.9,2.01,0,0,Autumn,No Holiday,Yes
7932,27/10/2018,12,10.4,41,4.9,1966,-2.3,1.33,0,0,Autumn,No Holiday,Yes
7933,27/10/2018,13,10.6,38,4.6,2000,-3.1,1.63,0,0,Autumn,No Holiday,Yes
7934,27/10/2018,14,10.8,37,4.4,2000,-3.3,1.29,0,0,Autumn,No Holiday,Yes
7935,27/10/2018,15,11.4,32,3.8,2000,-4.7,1.21,0,0,Autumn,No Holiday,Yes
7936,27/10/2018,16,10.6,35,3.3,2000,-4.2,1.02,0,0,Autumn,No Holiday,Yes
7937,27/10/2018,17,9.5,34,5.7,2000,-5.6,0.45,0,0,Autumn,No Holiday,Yes
7938,27/10/2018,18,8.9,39,3.5,2000,-4.3,0.05,0,0,Autumn,No Holiday,Yes
7939,27/10/2018,19,8,42,2.9,2000,-4.1,0,0,0,Autumn,No Holiday,Yes
7940,27/10/2018,20,7.6,44,4.2,2000,-3.8,0,0,0,Autumn,No Holiday,Yes
7941,27/10/2018,21,7.3,49,3.4,2000,-2.7,0,0,0,Autumn,No Holiday,Yes
7942,27/10/2018,22,6.6,51,1.8,2000,-2.8,0,0,0,Autumn,No Holiday,Yes
7943,27/10/2018,23,6.3,52,1.8,2000,-2.8,0,0,0,Autumn,No Holiday,Yes
7944,28/10/2018,0,6.7,55,1.5,2000,-1.7,0,0,0,Autumn,No Holiday,Yes
7945,28/10/2018,1,6.9,55,1.8,2000,-1.5,0,0,0,Autumn,No Holiday,Yes
7946,28/10/2018,2,6.6,59,0.4,2000,-0.8,0,0,0,Autumn,No Holiday,Yes
7947,28/10/2018,3,6.2,59,0.6,2000,-1.2,0,0,0,Autumn,No Holiday,Yes
7948,28/10/2018,4,6.8,65,1.1,2000,0.6,0,0,0,Autumn,No Holiday,Yes
7949,28/10/2018,5,7.2,68,2.5,1740,1.6,0,0,0,Autumn,No Holiday,Yes
7950,28/10/2018,6,6.9,86,1.7,1988,4.7,0,1.5,0,Autumn,No Holiday,Yes
7951,28/10/2018,7,6.9,88,0.9,1991,5,0,0,0,Autumn,No Holiday,Yes
7952,28/10/2018,8,6.8,89,1.4,1856,5.1,0.05,0,0,Autumn,No Holiday,Yes
7953,28/10/2018,9,7.3,90,1.1,1889,5.7,0.12,2.5,0,Autumn,No Holiday,Yes
7954,28/10/2018,10,8.2,89,0.4,1365,6.4,0.39,0,0,Autumn,No Holiday,Yes
7955,28/10/2018,11,9.4,86,1.2,1220,7.1,0.75,0,0,Autumn,No Holiday,Yes
7956,28/10/2018,12,11.9,74,1.6,1801,7.4,1.84,0,0,Autumn,No Holiday,Yes
7957,28/10/2018,13,12.1,75,1.2,1775,7.7,0.99,0,0,Autumn,No Holiday,Yes
7958,28/10/2018,14,12.4,72,1.9,1860,7.4,1.06,0,0,Autumn,No Holiday,Yes
7959,28/10/2018,15,12.2,67,3.3,2000,6.2,0.86,0,0,Autumn,No Holiday,Yes
7960,28/10/2018,16,12.2,65,1.9,2000,5.8,0.52,0,0,Autumn,No Holiday,Yes
7961,28/10/2018,17,9.4,85,1.2,2000,6.9,0.07,1.5,0,Autumn,No Holiday,Yes
7962,28/10/2018,18,8.9,85,1.8,2000,6.5,0.01,0,0,Autumn,No Holiday,Yes
7963,28/10/2018,19,8.4,85,1.2,2000,6,0,0,0,Autumn,No Holiday,Yes
7964,28/10/2018,20,8.2,82,2.8,2000,5.3,0,0,0,Autumn,No Holiday,Yes
7965,28/10/2018,21,7.6,75,1.1,2000,3.4,0,0,0,Autumn,No Holiday,Yes
7966,28/10/2018,22,6.7,76,0.6,2000,2.7,0,0,0,Autumn,No Holiday,Yes
7967,28/10/2018,23,6,74,1.1,2000,1.7,0,0,0,Autumn,No Holiday,Yes
7968,29/10/2018,0,5.3,81,1.7,1993,2.2,0,0,0,Autumn,No Holiday,Yes
7969,29/10/2018,1,5.1,83,1.1,1989,2.4,0,0,0,Autumn,No Holiday,Yes
7970,29/10/2018,2,4.7,81,1,1918,1.7,0,0,0,Autumn,No Holiday,Yes
7971,29/10/2018,3,5,67,0.8,2000,-0.6,0,0,0,Autumn,No Holiday,Yes
7972,29/10/2018,4,5.6,66,0.7,2000,-0.2,0,0,0,Autumn,No Holiday,Yes
7973,29/10/2018,5,5.1,76,0.7,2000,1.2,0,0,0,Autumn,No Holiday,Yes
7974,29/10/2018,6,4.7,76,0.6,2000,0.8,0,0,0,Autumn,No Holiday,Yes
7975,29/10/2018,7,4.6,76,0.7,2000,0.7,0,0,0,Autumn,No Holiday,Yes
7976,29/10/2018,8,5.1,67,0.3,1981,-0.5,0.24,0,0,Autumn,No Holiday,Yes
7977,29/10/2018,9,7.5,53,1.6,1981,-1.4,1.01,0,0,Autumn,No Holiday,Yes
7978,29/10/2018,10,9.6,43,1.8,1930,-2.3,1.49,0,0,Autumn,No Holiday,Yes
7979,29/10/2018,11,11,46,2.6,1946,-0.1,1.97,0,0,Autumn,No Holiday,Yes
7980,29/10/2018,12,10.8,49,2.7,2000,0.4,1.45,0,0,Autumn,No Holiday,Yes
7981,29/10/2018,13,10.4,49,2.7,2000,0.1,0.54,0,0,Autumn,No Holiday,Yes
7982,29/10/2018,14,11.3,39,3.7,2000,-2.1,1.18,0,0,Autumn,No Holiday,Yes
7983,29/10/2018,15,11,46,3.4,2000,-0.1,0.57,0,0,Autumn,No Holiday,Yes
7984,29/10/2018,16,11.3,41,3.6,2000,-1.4,0.94,0,0,Autumn,No Holiday,Yes
7985,29/10/2018,17,10,43,4.9,2000,-2,0.43,0,0,Autumn,No Holiday,Yes
7986,29/10/2018,18,9.4,51,3.4,2000,-0.2,0.02,0,0,Autumn,No Holiday,Yes
7987,29/10/2018,19,8.1,53,3.7,2000,-0.9,0,0,0,Autumn,No Holiday,Yes
7988,29/10/2018,20,6.8,59,3.2,2000,-0.6,0,0,0,Autumn,No Holiday,Yes
7989,29/10/2018,21,5.7,61,2.3,2000,-1.2,0,0,0,Autumn,No Holiday,Yes
7990,29/10/2018,22,5.1,58,2.2,2000,-2.4,0,0,0,Autumn,No Holiday,Yes
7991,29/10/2018,23,4.3,58,1.4,2000,-3.2,0,0,0,Autumn,No Holiday,Yes
7992,30/10/2018,0,3.4,55,1.5,2000,-4.8,0,0,0,Autumn,No Holiday,Yes
7993,30/10/2018,1,3,55,1,2000,-5.1,0,0,0,Autumn,No Holiday,Yes
7994,30/10/2018,2,2.1,56,0.5,2000,-5.7,0,0,0,Autumn,No Holiday,Yes
7995,30/10/2018,3,1.7,59,0.5,2000,-5.4,0,0,0,Autumn,No Holiday,Yes
7996,30/10/2018,4,1.6,63,0.3,2000,-4.6,0,0,0,Autumn,No Holiday,Yes
7997,30/10/2018,5,1.1,68,0.6,2000,-4.1,0,0,0,Autumn,No Holiday,Yes
7998,30/10/2018,6,0.8,69,1.4,2000,-4.2,0,0,0,Autumn,No Holiday,Yes
7999,30/10/2018,7,1.3,65,1.2,2000,-4.5,0,0,0,Autumn,No Holiday,Yes
8000,30/10/2018,8,1.4,58,0.9,1883,-5.9,0.15,0,0,Autumn,No Holiday,Yes
8001,30/10/2018,9,3.7,49,1.9,1961,-6,0.89,0,0,Autumn,No Holiday,Yes
8002,30/10/2018,10,6.1,38,2.5,1914,-7.1,1.51,0,0,Autumn,No Holiday,Yes
8003,30/10/2018,11,7.5,36,1.4,1993,-6.6,1.98,0,0,Autumn,No Holiday,Yes
8004,30/10/2018,12,8.5,34,1.5,1892,-6.4,2.21,0,0,Autumn,No Holiday,Yes
8005,30/10/2018,13,9.8,33,1.8,1937,-5.7,2.3,0,0,Autumn,No Holiday,Yes
8006,30/10/2018,14,10.7,33,1.7,2000,-4.9,2.12,0,0,Autumn,No Holiday,Yes
8007,30/10/2018,15,10.9,33,2.6,1963,-4.7,1.73,0,0,Autumn,No Holiday,Yes
8008,30/10/2018,16,11,34,2.3,1999,-4.2,1.16,0,0,Autumn,No Holiday,Yes
8009,30/10/2018,17,9.9,40,2.6,2000,-3,0.47,0,0,Autumn,No Holiday,Yes
8010,30/10/2018,18,8.4,52,2.6,2000,-0.9,0.03,0,0,Autumn,No Holiday,Yes
8011,30/10/2018,19,8,52,2.1,2000,-1.2,0,0,0,Autumn,No Holiday,Yes
8012,30/10/2018,20,7.6,59,1.1,2000,0,0,0,0,Autumn,No Holiday,Yes
8013,30/10/2018,21,7.6,55,2,2000,-0.8,0,0,0,Autumn,No Holiday,Yes
8014,30/10/2018,22,7.6,50,1.8,2000,-2.1,0,0,0,Autumn,No Holiday,Yes
8015,30/10/2018,23,7.7,50,1,1988,-2,0,0,0,Autumn,No Holiday,Yes
8016,31/10/2018,0,7.1,59,1.7,2000,-0.3,0,0,0,Autumn,No Holiday,Yes
8017,31/10/2018,1,6.6,66,1,2000,0.6,0,0,0,Autumn,No Holiday,Yes
8018,31/10/2018,2,6.4,65,0,2000,0.2,0,0,0,Autumn,No Holiday,Yes
8019,31/10/2018,3,5.6,69,0.1,2000,0.3,0,0,0,Autumn,No Holiday,Yes
8020,31/10/2018,4,5,71,1.4,1994,0.1,0,0,0,Autumn,No Holiday,Yes
8021,31/10/2018,5,4.1,74,0.9,2000,-0.1,0,0,0,Autumn,No Holiday,Yes
8022,31/10/2018,6,3.6,75,0.8,2000,-0.4,0,0,0,Autumn,No Holiday,Yes
8023,31/10/2018,7,3.2,74,0.9,2000,-0.9,0,0,0,Autumn,No Holiday,Yes
8024,31/10/2018,8,3.7,67,1.8,1987,-1.8,0.15,0,0,Autumn,No Holiday,Yes
8025,31/10/2018,9,5.1,56,1.8,1825,-2.9,0.89,0,0,Autumn,No Holiday,Yes
8026,31/10/2018,10,7.2,49,2.2,1892,-2.8,1.51,0,0,Autumn,No Holiday,Yes
8027,31/10/2018,11,8.7,41,2.6,1907,-3.8,1.96,0,0,Autumn,No Holiday,Yes
8028,31/10/2018,12,10,39,2,2000,-3.3,2.2,0,0,Autumn,No Holiday,Yes
8029,31/10/2018,13,11.2,34,2.6,1940,-4.1,2.26,0,0,Autumn,No Holiday,Yes
8030,31/10/2018,14,11.9,34,2.4,1835,-3.4,2.12,0,0,Autumn,No Holiday,Yes
8031,31/10/2018,15,12,35,3,1908,-3,1.72,0,0,Autumn,No Holiday,Yes
8032,31/10/2018,16,11.8,34,2.3,1979,-3.5,1.16,0,0,Autumn,No Holiday,Yes
8033,31/10/2018,17,11.3,41,1.8,2000,-1.4,0.51,0,0,Autumn,No Holiday,Yes
8034,31/10/2018,18,9.4,48,2,2000,-1,0.03,0,0,Autumn,No Holiday,Yes
8035,31/10/2018,19,8.4,53,1,2000,-0.6,0,0,0,Autumn,No Holiday,Yes
8036,31/10/2018,20,7.6,59,0.7,2000,0,0,0,0,Autumn,No Holiday,Yes
8037,31/10/2018,21,7.6,59,3,1929,0,0,0,0,Autumn,No Holiday,Yes
8038,31/10/2018,22,6.8,58,2.2,1936,-0.9,0,0,0,Autumn,No Holiday,Yes
8039,31/10/2018,23,6.4,60,1.8,1930,-0.8,0,0,0,Autumn,No Holiday,Yes
8040,01/11/2018,0,5.7,62,2.3,1909,-1,0,0,0,Autumn,No Holiday,Yes
8041,01/11/2018,1,5.1,65,1.6,1932,-0.9,0,0,0,Autumn,No Holiday,Yes
8042,01/11/2018,2,4.4,64,1.4,2000,-1.8,0,0,0,Autumn,No Holiday,Yes
8043,01/11/2018,3,4.2,65,0.7,1962,-1.8,0,0,0,Autumn,No Holiday,Yes
8044,01/11/2018,4,3.6,70,0.8,1934,-1.3,0,0,0,Autumn,No Holiday,Yes
8045,01/11/2018,5,3.3,72,0,1946,-1.2,0,0,0,Autumn,No Holiday,Yes
8046,01/11/2018,6,2.9,75,0.2,1761,-1.1,0,0,0,Autumn,No Holiday,Yes
8047,01/11/2018,7,2.5,75,0.5,1763,-1.4,0,0,0,Autumn,No Holiday,Yes
8048,01/11/2018,8,2.8,74,0.9,1366,-1.3,0.13,0,0,Autumn,No Holiday,Yes
8049,01/11/2018,9,4.7,60,0.9,1219,-2.4,0.82,0,0,Autumn,No Holiday,Yes
8050,01/11/2018,10,8.1,51,0.7,1100,-1.4,1.38,0,0,Autumn,No Holiday,Yes
8051,01/11/2018,11,11.1,46,1.6,1518,-0.1,1.84,0,0,Autumn,No Holiday,Yes
8052,01/11/2018,12,12.6,36,2.6,1785,-2.1,2.14,0,0,Autumn,No Holiday,Yes
8053,01/11/2018,13,13.6,32,1.8,1814,-2.8,2.22,0,0,Autumn,No Holiday,Yes
8054,01/11/2018,14,14.9,31,2.5,1872,-2.1,2.06,0,0,Autumn,No Holiday,Yes
8055,01/11/2018,15,14.8,30,2.7,1990,-2.6,1.71,0,0,Autumn,No Holiday,Yes
8056,01/11/2018,16,14.7,32,2,1934,-1.8,1.13,0,0,Autumn,No Holiday,Yes
8057,01/11/2018,17,13.7,37,1.4,2000,-0.7,0.49,0,0,Autumn,No Holiday,Yes
8058,01/11/2018,18,11.8,43,1.3,1995,-0.3,0.03,0,0,Autumn,No Holiday,Yes
8059,01/11/2018,19,10.5,49,1.2,1965,0.2,0,0,0,Autumn,No Holiday,Yes
8060,01/11/2018,20,9.9,53,1.7,1868,0.7,0,0,0,Autumn,No Holiday,Yes
8061,01/11/2018,21,9.3,54,1.1,1975,0.4,0,0,0,Autumn,No Holiday,Yes
8062,01/11/2018,22,8.3,61,0.2,1809,1.2,0,0,0,Autumn,No Holiday,Yes
8063,01/11/2018,23,7.8,63,0.4,1547,1.1,0,0,0,Autumn,No Holiday,Yes
8064,02/11/2018,0,7.2,64,1,1639,0.8,0,0,0,Autumn,No Holiday,Yes
8065,02/11/2018,1,6.6,69,0,1512,1.3,0,0,0,Autumn,No Holiday,Yes
8066,02/11/2018,2,6.1,68,0.5,1519,0.6,0,0,0,Autumn,No Holiday,Yes
8067,02/11/2018,3,5.7,72,0.8,1368,1,0,0,0,Autumn,No Holiday,Yes
8068,02/11/2018,4,5.2,74,1.3,1386,0.9,0,0,0,Autumn,No Holiday,Yes
8069,02/11/2018,5,4.8,75,0.7,1471,0.7,0,0,0,Autumn,No Holiday,Yes
8070,02/11/2018,6,4.5,77,1,1410,0.8,0,0,0,Autumn,No Holiday,Yes
8071,02/11/2018,7,4.1,75,0.8,1143,0,0,0,0,Autumn,No Holiday,Yes
8072,02/11/2018,8,4.7,72,1,1306,0,0.12,0,0,Autumn,No Holiday,Yes
8073,02/11/2018,9,7,57,0.7,1553,-0.9,0.79,0,0,Autumn,No Holiday,Yes
8074,02/11/2018,10,10,49,1.2,1411,-0.2,1.4,0,0,Autumn,No Holiday,Yes
8075,02/11/2018,11,12.8,44,1,1269,0.8,1.84,0,0,Autumn,No Holiday,Yes
8076,02/11/2018,12,14.9,40,1.1,1288,1.4,2.06,0,0,Autumn,No Holiday,Yes
8077,02/11/2018,13,16.5,37,1.2,1400,1.7,2.12,0,0,Autumn,No Holiday,Yes
8078,02/11/2018,14,18,31,1.2,1506,0.5,1.98,0,0,Autumn,No Holiday,Yes
8079,02/11/2018,15,18.6,31,1.4,1575,1.1,1.63,0,0,Autumn,No Holiday,Yes
8080,02/11/2018,16,18.8,32,1.4,1717,1.7,1.09,0,0,Autumn,No Holiday,Yes
8081,02/11/2018,17,17,36,1.5,1672,1.8,0.47,0,0,Autumn,No Holiday,Yes
8082,02/11/2018,18,14.6,42,1.4,1428,1.8,0.02,0,0,Autumn,No Holiday,Yes
8083,02/11/2018,19,12.8,40,1.4,1870,-0.4,0,0,0,Autumn,No Holiday,Yes
8084,02/11/2018,20,11.7,45,1.2,1748,0.1,0,0,0,Autumn,No Holiday,Yes
8085,02/11/2018,21,10.8,57,2,1219,2.6,0,0,0,Autumn,No Holiday,Yes
8086,02/11/2018,22,10,56,2,1290,1.6,0,0,0,Autumn,No Holiday,Yes
8087,02/11/2018,23,9.7,56,1.3,1423,1.3,0,0,0,Autumn,No Holiday,Yes
8088,03/11/2018,0,8.8,63,0.6,1314,2.1,0,0,0,Autumn,No Holiday,No
8089,03/11/2018,1,8.5,61,0.2,1273,1.3,0,0,0,Autumn,No Holiday,No
8090,03/11/2018,2,7.6,68,1.2,1170,2,0,0,0,Autumn,No Holiday,No
8091,03/11/2018,3,7.1,67,0.6,1229,1.3,0,0,0,Autumn,No Holiday,No
8092,03/11/2018,4,6.3,72,1,1104,1.6,0,0,0,Autumn,No Holiday,No
8093,03/11/2018,5,6.1,75,1,1053,1.9,0,0,0,Autumn,No Holiday,No
8094,03/11/2018,6,5.5,78,0.6,983,1.9,0,0,0,Autumn,No Holiday,No
8095,03/11/2018,7,5.2,79,1.3,894,1.8,0,0,0,Autumn,No Holiday,No
8096,03/11/2018,8,5.4,75,0.4,905,1.3,0.11,0,0,Autumn,No Holiday,No
8097,03/11/2018,9,7.9,58,1.3,1033,0.1,0.8,0,0,Autumn,No Holiday,No
8098,03/11/2018,10,11,49,0.7,957,0.6,1.4,0,0,Autumn,No Holiday,No
8099,03/11/2018,11,14.5,42,1.6,890,1.7,1.85,0,0,Autumn,No Holiday,No
8100,03/11/2018,12,16.5,37,1.8,1060,1.7,2.14,0,0,Autumn,No Holiday,No
8101,03/11/2018,13,17.8,29,2,1328,-0.4,2.17,0,0,Autumn,No Holiday,No
8102,03/11/2018,14,18.1,24,2.4,1594,-2.8,1.97,0,0,Autumn,No Holiday,No
8103,03/11/2018,15,18.5,25,1.6,1724,-1.9,1.63,0,0,Autumn,No Holiday,No
8104,03/11/2018,16,18.7,25,2.1,1605,-1.7,1.07,0,0,Autumn,No Holiday,No
8105,03/11/2018,17,16.7,45,2.2,772,4.6,0.43,0,0,Autumn,No Holiday,No
8106,03/11/2018,18,14.2,51,1.5,990,4.1,0.02,0,0,Autumn,No Holiday,No
8107,03/11/2018,19,13.4,62,1.6,740,6.2,0,0,0,Autumn,No Holiday,No
8108,03/11/2018,20,12.1,68,0.8,592,6.3,0,0,0,Autumn,No Holiday,No
8109,03/11/2018,21,11.1,69,0.9,619,5.6,0,0,0,Autumn,No Holiday,No
8110,03/11/2018,22,10,68,1.1,791,4.3,0,0,0,Autumn,No Holiday,No
8111,03/11/2018,23,9.2,65,1.2,1064,2.9,0,0,0,Autumn,No Holiday,No
8112,04/11/2018,0,9.1,63,0.6,1292,2.4,0,0,0,Autumn,No Holiday,Yes
8113,04/11/2018,1,8.6,60,1.1,1416,1.2,0,0,0,Autumn,No Holiday,Yes
8114,04/11/2018,2,8.2,62,0.2,1415,1.3,0,0,0,Autumn,No Holiday,Yes
8115,04/11/2018,3,7.6,66,0.9,1432,1.6,0,0,0,Autumn,No Holiday,Yes
8116,04/11/2018,4,6.9,70,1.5,1314,1.7,0,0,0,Autumn,No Holiday,Yes
8117,04/11/2018,5,6.6,73,0.3,1219,2,0,0,0,Autumn,No Holiday,Yes
8118,04/11/2018,6,6.2,73,0.3,1018,1.7,0,0,0,Autumn,No Holiday,Yes
8119,04/11/2018,7,5.8,79,1,862,2.4,0,0,0,Autumn,No Holiday,Yes
8120,04/11/2018,8,5.7,78,1.1,714,2.1,0.09,0,0,Autumn,No Holiday,Yes
8121,04/11/2018,9,7.5,60,0.5,725,0.2,0.79,0,0,Autumn,No Holiday,Yes
8122,04/11/2018,10,11.1,51,0.8,679,1.3,1.38,0,0,Autumn,No Holiday,Yes
8123,04/11/2018,11,14.8,46,2,768,3.2,1.83,0,0,Autumn,No Holiday,Yes
8124,04/11/2018,12,16.3,33,2.9,1530,0,2.13,0,0,Autumn,No Holiday,Yes
8125,04/11/2018,13,18.3,26,1.2,1503,-1.5,2.17,0,0,Autumn,No Holiday,Yes
8126,04/11/2018,14,19.3,28,1.7,1208,0.3,1.93,0,0,Autumn,No Holiday,Yes
8127,04/11/2018,15,19,25,2.1,1748,-1.5,1.6,0,0,Autumn,No Holiday,Yes
8128,04/11/2018,16,18.4,25,3.2,1909,-2,1.05,0,0,Autumn,No Holiday,Yes
8129,04/11/2018,17,16.9,33,2.2,1972,0.5,0.43,0,0,Autumn,No Holiday,Yes
8130,04/11/2018,18,14.5,46,2.6,1618,3,0.01,0,0,Autumn,No Holiday,Yes
8131,04/11/2018,19,12.9,56,2.5,1345,4.3,0,0,0,Autumn,No Holiday,Yes
8132,04/11/2018,20,12.7,59,1.2,1177,4.8,0,0,0,Autumn,No Holiday,Yes
8133,04/11/2018,21,11.8,62,0.7,1030,4.7,0,0,0,Autumn,No Holiday,Yes
8134,04/11/2018,22,11.2,67,1.3,940,5.2,0,0,0,Autumn,No Holiday,Yes
8135,04/11/2018,23,10.6,73,1.3,931,5.9,0,0,0,Autumn,No Holiday,Yes
8136,05/11/2018,0,10.1,75,0,922,5.8,0,0,0,Autumn,No Holiday,Yes
8137,05/11/2018,1,9.3,78,0.1,828,5.6,0,0,0,Autumn,No Holiday,Yes
8138,05/11/2018,2,8.8,81,0,773,5.7,0,0,0,Autumn,No Holiday,Yes
8139,05/11/2018,3,8.3,81,1.1,642,5.2,0,0,0,Autumn,No Holiday,Yes
8140,05/11/2018,4,8,81,0.4,666,4.9,0,0,0,Autumn,No Holiday,Yes
8141,05/11/2018,5,8,84,0.7,569,5.4,0,0,0,Autumn,No Holiday,Yes
8142,05/11/2018,6,7.2,83,0.8,636,4.4,0,0,0,Autumn,No Holiday,Yes
8143,05/11/2018,7,7,86,1.1,455,4.8,0,0,0,Autumn,No Holiday,Yes
8144,05/11/2018,8,7.2,80,0.8,515,3.9,0.13,0,0,Autumn,No Holiday,Yes
8145,05/11/2018,9,8.9,67,1.1,578,3,0.69,0,0,Autumn,No Holiday,Yes
8146,05/11/2018,10,11.8,59,0.9,616,4,1.23,0,0,Autumn,No Holiday,Yes
8147,05/11/2018,11,13.8,47,1.2,994,2.6,1.71,0,0,Autumn,No Holiday,Yes
8148,05/11/2018,12,16.4,48,2.1,653,5.3,1.68,0,0,Autumn,No Holiday,Yes
8149,05/11/2018,13,16.8,46,1.1,760,5,1.71,0,0,Autumn,No Holiday,Yes
8150,05/11/2018,14,17.5,38,1.2,1090,3,1.74,0,0,Autumn,No Holiday,Yes
8151,05/11/2018,15,18,39,1,1208,3.8,1.21,0,0,Autumn,No Holiday,Yes
8152,05/11/2018,16,16.8,46,1.8,1041,5,0.72,0,0,Autumn,No Holiday,Yes
8153,05/11/2018,17,15.7,49,2,1252,5,0.26,0,0,Autumn,No Holiday,Yes
8154,05/11/2018,18,14.5,54,1.3,1343,5.2,0.01,0,0,Autumn,No Holiday,Yes
8155,05/11/2018,19,13.2,66,1.7,705,6.9,0,0,0,Autumn,No Holiday,Yes
8156,05/11/2018,20,12.7,75,2,433,8.3,0,0,0,Autumn,No Holiday,Yes
8157,05/11/2018,21,12.2,79,1.8,351,8.6,0,0,0,Autumn,No Holiday,Yes
8158,05/11/2018,22,11.6,81,1.2,336,8.4,0,0,0,Autumn,No Holiday,Yes
8159,05/11/2018,23,10.9,82,0.1,346,7.9,0,0,0,Autumn,No Holiday,Yes
8160,06/11/2018,0,10,73,0.5,700,5.3,0,0,0,Autumn,No Holiday,No
8161,06/11/2018,1,9.8,75,0.5,668,5.5,0,0,0,Autumn,No Holiday,No
8162,06/11/2018,2,9.7,78,0,619,6,0,0,0,Autumn,No Holiday,No
8163,06/11/2018,3,9.4,81,0.3,500,6.2,0,0,0,Autumn,No Holiday,No
8164,06/11/2018,4,9.1,81,0,493,6,0,0,0,Autumn,No Holiday,No
8165,06/11/2018,5,8.8,84,0.6,420,6.2,0,0,0,Autumn,No Holiday,No
8166,06/11/2018,6,8.5,83,0.7,409,5.7,0,0,0,Autumn,No Holiday,No
8167,06/11/2018,7,8.3,84,0.9,422,5.7,0,0,0,Autumn,No Holiday,No
8168,06/11/2018,8,8.7,77,0.7,529,4.8,0.11,0,0,Autumn,No Holiday,No
8169,06/11/2018,9,10.1,68,0.2,578,4.4,0.33,0,0,Autumn,No Holiday,No
8170,06/11/2018,10,11.7,62,0.5,521,4.6,0.77,0,0,Autumn,No Holiday,No
8171,06/11/2018,11,13,55,1,488,4.1,0.84,0,0,Autumn,No Holiday,No
8172,06/11/2018,12,14.5,57,0.8,373,6,1.08,0,0,Autumn,No Holiday,No
8173,06/11/2018,13,16.1,56,1.7,328,7.3,1.54,0,0,Autumn,No Holiday,No
8174,06/11/2018,14,17.4,50,2.4,336,6.8,1.52,0,0,Autumn,No Holiday,No
8175,06/11/2018,15,16.3,54,1.6,374,6.9,0.76,0,0,Autumn,No Holiday,No
8176,06/11/2018,16,16.6,55,1.3,334,7.5,0.66,0,0,Autumn,No Holiday,No
8177,06/11/2018,17,15.3,63,1.2,260,8.2,0.23,0,0,Autumn,No Holiday,No
8178,06/11/2018,18,14,71,1.5,201,8.8,0.01,0,0,Autumn,No Holiday,No
8179,06/11/2018,19,13.3,72,1.1,234,8.3,0,0,0,Autumn,No Holiday,No
8180,06/11/2018,20,13.2,73,1.1,246,8.4,0,0,0,Autumn,No Holiday,No
8181,06/11/2018,21,13,76,0.9,231,8.8,0,0,0,Autumn,No Holiday,No
8182,06/11/2018,22,12.3,73,1.2,277,7.5,0,0,0,Autumn,No Holiday,No
8183,06/11/2018,23,12.2,74,1.1,291,7.6,0,0,0,Autumn,No Holiday,No
8184,07/11/2018,0,11.9,74,1.6,287,7.4,0,0,0,Autumn,No Holiday,Yes
8185,07/11/2018,1,11.9,76,1.4,286,7.7,0,0,0,Autumn,No Holiday,Yes
8186,07/11/2018,2,12,81,1.3,295,8.8,0,0,0,Autumn,No Holiday,Yes
8187,07/11/2018,3,10.8,88,1,145,8.8,0,0.5,0,Autumn,No Holiday,Yes
8188,07/11/2018,4,10.6,95,0.7,94,9.8,0,0,0,Autumn,No Holiday,Yes
8189,07/11/2018,5,11.1,95,0.2,117,10.3,0,0,0,Autumn,No Holiday,Yes
8190,07/11/2018,6,11,91,1,124,9.5,0,1,0,Autumn,No Holiday,Yes
8191,07/11/2018,7,10.8,91,1.3,216,9.3,0,0,0,Autumn,No Holiday,Yes
8192,07/11/2018,8,11.3,89,1.1,279,9.5,0.01,0,0,Autumn,No Holiday,Yes
8193,07/11/2018,9,11.2,86,1,372,8.9,0.09,0.5,0,Autumn,No Holiday,Yes
8194,07/11/2018,10,11.9,84,0.9,482,9.2,0.2,0,0,Autumn,No Holiday,Yes
8195,07/11/2018,11,12.4,82,0.6,507,9.4,0.34,0,0,Autumn,No Holiday,Yes
8196,07/11/2018,12,13.2,77,1.3,589,9.2,0.5,0,0,Autumn,No Holiday,Yes
8197,07/11/2018,13,14.5,74,1.3,610,9.9,0.75,0,0,Autumn,No Holiday,Yes
8198,07/11/2018,14,15.5,68,1.4,693,9.6,1.15,0,0,Autumn,No Holiday,Yes
8199,07/11/2018,15,15.4,72,1.1,608,10.3,0.57,0,0,Autumn,No Holiday,Yes
8200,07/11/2018,16,15.2,72,1.2,625,10.1,0.4,0,0,Autumn,No Holiday,Yes
8201,07/11/2018,17,14.9,73,0.9,854,10,0.04,0,0,Autumn,No Holiday,Yes
8202,07/11/2018,18,14.4,77,1,912,10.4,0,0,0,Autumn,No Holiday,Yes
8203,07/11/2018,19,13.8,81,1.5,760,10.5,0,0,0,Autumn,No Holiday,Yes
8204,07/11/2018,20,13.3,77,1.6,833,9.3,0,0,0,Autumn,No Holiday,Yes
8205,07/11/2018,21,13.5,75,0.8,1275,9.1,0,0,0,Autumn,No Holiday,Yes
8206,07/11/2018,22,13.2,74,1.4,1407,8.6,0,0,0,Autumn,No Holiday,Yes
8207,07/11/2018,23,12.9,72,1.4,2000,7.9,0,0,0,Autumn,No Holiday,Yes
8208,08/11/2018,0,12.9,70,1.8,2000,7.5,0,0,0,Autumn,No Holiday,Yes
8209,08/11/2018,1,11.9,77,1.1,1634,7.9,0,0,0,Autumn,No Holiday,Yes
8210,08/11/2018,2,11.8,84,1.6,1874,9.1,0,0,0,Autumn,No Holiday,Yes
8211,08/11/2018,3,11.8,86,1.6,1819,9.5,0,0.5,0,Autumn,No Holiday,Yes
8212,08/11/2018,4,10.8,87,1.7,956,8.7,0,0,0,Autumn,No Holiday,Yes
8213,08/11/2018,5,10.8,89,1.6,957,9,0,0,0,Autumn,No Holiday,Yes
8214,08/11/2018,6,10.6,90,1.6,1065,9,0,1.5,0,Autumn,No Holiday,Yes
8215,08/11/2018,7,10.9,88,1.8,1866,8.9,0,0,0,Autumn,No Holiday,Yes
8216,08/11/2018,8,10.6,89,1.5,689,8.8,0.02,0,0,Autumn,No Holiday,Yes
8217,08/11/2018,9,10.6,94,2.1,739,9.6,0.06,2,0,Autumn,No Holiday,Yes
8218,08/11/2018,10,10.8,94,1.8,578,9.8,0.15,0,0,Autumn,No Holiday,Yes
8219,08/11/2018,11,10.9,95,2.4,519,10.1,0.12,0,0,Autumn,No Holiday,Yes
8220,08/11/2018,12,11.4,95,2.5,792,10.6,0.44,5.5,0,Autumn,No Holiday,Yes
8221,08/11/2018,13,11.5,95,2.1,457,10.7,0.32,0,0,Autumn,No Holiday,Yes
8222,08/11/2018,14,11.3,96,2.7,302,10.6,0.11,0,0,Autumn,No Holiday,Yes
8223,08/11/2018,15,11.4,96,2,910,10.7,0.07,9.5,0,Autumn,No Holiday,Yes
8224,08/11/2018,16,11.7,96,1.4,587,11,0.02,0,0,Autumn,No Holiday,Yes
8225,08/11/2018,17,11.9,97,0.7,269,11.4,0,0,0,Autumn,No Holiday,Yes
8226,08/11/2018,18,12.9,97,0,406,12.4,0,9,0,Autumn,No Holiday,Yes
8227,08/11/2018,19,12.8,97,0.9,245,12.3,0,0,0,Autumn,No Holiday,Yes
8228,08/11/2018,20,13.9,97,2.5,594,13.4,0,0,0,Autumn,No Holiday,Yes
8229,08/11/2018,21,14,96,4.1,292,13.3,0,18,0,Autumn,No Holiday,Yes
8230,08/11/2018,22,12.4,96,2.7,545,11.7,0,0,0,Autumn,No Holiday,Yes
8231,08/11/2018,23,11.5,96,3,691,10.8,0,0,0,Autumn,No Holiday,Yes
8232,09/11/2018,0,12,96,3.1,1185,11.3,0,18,0,Autumn,No Holiday,No
8233,09/11/2018,1,11.4,89,2.6,1376,9.6,0,0,0,Autumn,No Holiday,No
8234,09/11/2018,2,11.3,88,3.7,1680,9.3,0,0,0,Autumn,No Holiday,No
8235,09/11/2018,3,10.8,82,2.8,1712,7.8,0,0.5,0,Autumn,No Holiday,No
8236,09/11/2018,4,10.6,75,3.2,913,6.3,0,0,0,Autumn,No Holiday,No
8237,09/11/2018,5,10.9,68,3.1,1034,5.2,0,0,0,Autumn,No Holiday,No
8238,09/11/2018,6,11,70,3.1,900,5.7,0,0,0,Autumn,No Holiday,No
8239,09/11/2018,7,10.4,81,3,1741,7.2,0,0,0,Autumn,No Holiday,No
8240,09/11/2018,8,10.1,85,2.4,1809,7.6,0.05,0,0,Autumn,No Holiday,No
8241,09/11/2018,9,10.8,78,2.6,1985,7.1,0.13,0.5,0,Autumn,No Holiday,No
8242,09/11/2018,10,11.3,68,4.7,1984,5.5,0.44,0,0,Autumn,No Holiday,No
8243,09/11/2018,11,13.3,59,4.1,1970,5.4,1.43,0,0,Autumn,No Holiday,No
8244,09/11/2018,12,13.9,50,4.1,1964,3.6,2.14,0,0,Autumn,No Holiday,No
8245,09/11/2018,13,14,46,5.3,927,2.5,1.68,0,0,Autumn,No Holiday,No
8246,09/11/2018,14,15,49,2.8,518,4.3,1.53,0,0,Autumn,No Holiday,No
8247,09/11/2018,15,15.1,52,3.4,622,5.3,1.3,0,0,Autumn,No Holiday,No
8248,09/11/2018,16,14.3,59,3.6,858,6.3,0.72,0,0,Autumn,No Holiday,No
8249,09/11/2018,17,12.9,66,3.6,682,6.6,0.32,0,0,Autumn,No Holiday,No
8250,09/11/2018,18,12.3,69,2.1,623,6.7,0.01,0,0,Autumn,No Holiday,No
8251,09/11/2018,19,11.9,71,2.7,589,6.7,0,0,0,Autumn,No Holiday,No
8252,09/11/2018,20,11.9,72,2.5,526,7,0,0,0,Autumn,No Holiday,No
8253,09/11/2018,21,11.4,74,1.9,498,6.9,0,0,0,Autumn,No Holiday,No
8254,09/11/2018,22,11.2,75,1.7,478,6.9,0,0,0,Autumn,No Holiday,No
8255,09/11/2018,23,10.9,76,1.2,456,6.8,0,0,0,Autumn,No Holiday,No
8256,10/11/2018,0,11.3,77,0.9,433,7.4,0,0,0,Autumn,No Holiday,Yes
8257,10/11/2018,1,11.2,78,1.1,467,7.4,0,0,0,Autumn,No Holiday,Yes
8258,10/11/2018,2,10.7,80,0.6,409,7.3,0,0,0,Autumn,No Holiday,Yes
8259,10/11/2018,3,10.3,81,0.7,361,7.1,0,0,0,Autumn,No Holiday,Yes
8260,10/11/2018,4,9.5,87,0.6,266,7.4,0,0,0,Autumn,No Holiday,Yes
8261,10/11/2018,5,9.4,87,0.8,279,7.3,0,0,0,Autumn,No Holiday,Yes
8262,10/11/2018,6,9.5,85,0.6,304,7,0,0,0,Autumn,No Holiday,Yes
8263,10/11/2018,7,9.5,86,0.6,293,7.2,0,0,0,Autumn,No Holiday,Yes
8264,10/11/2018,8,9.3,85,0.3,313,6.9,0.07,0,0,Autumn,No Holiday,Yes
8265,10/11/2018,9,10.1,77,0,350,6.2,0.45,0,0,Autumn,No Holiday,Yes
8266,10/11/2018,10,12.2,73,1.9,374,7.4,0.92,0,0,Autumn,No Holiday,Yes
8267,10/11/2018,11,13.8,63,2.2,416,6.8,1.32,0,0,Autumn,No Holiday,Yes
8268,10/11/2018,12,15.1,54,2.2,495,5.8,1.91,0,0,Autumn,No Holiday,Yes
8269,10/11/2018,13,15.9,48,2.7,538,4.8,1.87,0,0,Autumn,No Holiday,Yes
8270,10/11/2018,14,17.1,39,2,781,3,1.85,0,0,Autumn,No Holiday,Yes
8271,10/11/2018,15,16.6,36,2.5,808,1.4,1.45,0,0,Autumn,No Holiday,Yes
8272,10/11/2018,16,16,37,1.9,984,1.2,0.94,0,0,Autumn,No Holiday,Yes
8273,10/11/2018,17,14.8,47,1.3,787,3.5,0.35,0,0,Autumn,No Holiday,Yes
8274,10/11/2018,18,13.2,57,2.2,618,4.8,0.01,0,0,Autumn,No Holiday,Yes
8275,10/11/2018,19,12.1,67,1.5,430,6.1,0,0,0,Autumn,No Holiday,Yes
8276,10/11/2018,20,11.3,74,1.2,350,6.8,0,0,0,Autumn,No Holiday,Yes
8277,10/11/2018,21,10.8,78,1,303,7.1,0,0,0,Autumn,No Holiday,Yes
8278,10/11/2018,22,10.6,81,1.2,281,7.4,0,0,0,Autumn,No Holiday,Yes
8279,10/11/2018,23,10.3,84,1.3,250,7.7,0,0,0,Autumn,No Holiday,Yes
8280,11/11/2018,0,9.4,85,0.6,241,6.9,0,0,0,Autumn,No Holiday,Yes
8281,11/11/2018,1,8.8,89,0.7,213,7,0,0,0,Autumn,No Holiday,Yes
8282,11/11/2018,2,7.9,85,1.1,275,5.5,0,0,0,Autumn,No Holiday,Yes
8283,11/11/2018,3,7.1,85,0.7,329,4.7,0,0,0,Autumn,No Holiday,Yes
8284,11/11/2018,4,6.9,82,0.5,337,4,0,0,0,Autumn,No Holiday,Yes
8285,11/11/2018,5,6.8,83,0.6,341,4.1,0,0,0,Autumn,No Holiday,Yes
8286,11/11/2018,6,6.6,84,1.2,373,4,0,0,0,Autumn,No Holiday,Yes
8287,11/11/2018,7,6.4,84,1.3,369,3.8,0,0,0,Autumn,No Holiday,Yes
8288,11/11/2018,8,6.3,81,0.8,365,3.2,0.11,0,0,Autumn,No Holiday,Yes
8289,11/11/2018,9,7.8,72,1.2,360,3,0.54,0,0,Autumn,No Holiday,Yes
8290,11/11/2018,10,10.2,68,0.7,354,4.5,1.06,0,0,Autumn,No Holiday,Yes
8291,11/11/2018,11,10.7,68,0.4,341,5,0.54,0,0,Autumn,No Holiday,Yes
8292,11/11/2018,12,10.6,72,2,365,5.7,0.29,0,0,Autumn,No Holiday,Yes
8293,11/11/2018,13,9.8,70,1.7,360,4.5,0.33,0,0,Autumn,No Holiday,Yes
8294,11/11/2018,14,10.1,58,0.9,605,2.1,0.43,0,0,Autumn,No Holiday,Yes
8295,11/11/2018,15,10.2,58,2,573,2.2,0.29,0,0,Autumn,No Holiday,Yes
8296,11/11/2018,16,9.9,59,1.3,578,2.2,0.1,0,0,Autumn,No Holiday,Yes
8297,11/11/2018,17,8.9,57,3,1149,0.8,0.03,0,0,Autumn,No Holiday,Yes
8298,11/11/2018,18,8.9,55,2,1333,0.3,0,0,0,Autumn,No Holiday,Yes
8299,11/11/2018,19,8.7,52,0.8,1590,-0.6,0,0,0,Autumn,No Holiday,Yes
8300,11/11/2018,20,8.2,53,0.6,1621,-0.8,0,0,0,Autumn,No Holiday,Yes
8301,11/11/2018,21,8,51,0.5,1989,-1.5,0,0,0,Autumn,No Holiday,Yes
8302,11/11/2018,22,7,60,0,1948,-0.2,0,0,0,Autumn,No Holiday,Yes
8303,11/11/2018,23,6.3,62,0,1993,-0.4,0,0,0,Autumn,No Holiday,Yes
8304,12/11/2018,0,5.4,64,0.8,2000,-0.8,0,0,0,Autumn,No Holiday,Yes
8305,12/11/2018,1,5,67,1.3,2000,-0.6,0,0,0,Autumn,No Holiday,Yes
8306,12/11/2018,2,4.8,66,1.6,2000,-1,0,0,0,Autumn,No Holiday,Yes
8307,12/11/2018,3,4.6,65,0.1,2000,-1.4,0,0,0,Autumn,No Holiday,Yes
8308,12/11/2018,4,4,68,0,2000,-1.3,0,0,0,Autumn,No Holiday,Yes
8309,12/11/2018,5,4,71,0,2000,-0.7,0,0,0,Autumn,No Holiday,Yes
8310,12/11/2018,6,3.8,69,0,1995,-1.3,0,0,0,Autumn,No Holiday,Yes
8311,12/11/2018,7,3.4,72,1,1989,-1.1,0,0,0,Autumn,No Holiday,Yes
8312,12/11/2018,8,3.3,69,0,2000,-1.8,0.06,0,0,Autumn,No Holiday,Yes
8313,12/11/2018,9,5.2,55,1.4,1752,-3.1,0.67,0,0,Autumn,No Holiday,Yes
8314,12/11/2018,10,8.3,50,1.1,1364,-1.5,1.23,0,0,Autumn,No Holiday,Yes
8315,12/11/2018,11,10.3,40,0.7,1672,-2.7,1.66,0,0,Autumn,No Holiday,Yes
8316,12/11/2018,12,12.3,37,0.8,1690,-1.9,1.93,0,0,Autumn,No Holiday,Yes
8317,12/11/2018,13,13.3,36,2.1,1283,-1.4,1.99,0,0,Autumn,No Holiday,Yes
8318,12/11/2018,14,14.2,33,1.5,1374,-1.8,1.84,0,0,Autumn,No Holiday,Yes
8319,12/11/2018,15,13.8,34,2.4,1438,-1.8,1.45,0,0,Autumn,No Holiday,Yes
8320,12/11/2018,16,12.9,38,2.6,1476,-1.1,0.94,0,0,Autumn,No Holiday,Yes
8321,12/11/2018,17,11.8,43,1.8,1685,-0.3,0.34,0,0,Autumn,No Holiday,Yes
8322,12/11/2018,18,10.6,45,1.8,1936,-0.8,0.01,0,0,Autumn,No Holiday,Yes
8323,12/11/2018,19,9.8,46,2.8,1945,-1.2,0,0,0,Autumn,No Holiday,Yes
8324,12/11/2018,20,9,48,1.9,1879,-1.4,0,0,0,Autumn,No Holiday,Yes
8325,12/11/2018,21,8.5,50,0.5,1707,-1.3,0,0,0,Autumn,No Holiday,Yes
8326,12/11/2018,22,7.6,55,1.7,1694,-0.8,0,0,0,Autumn,No Holiday,Yes
8327,12/11/2018,23,6.9,60,0.8,1610,-0.3,0,0,0,Autumn,No Holiday,Yes
8328,13/11/2018,0,6.2,63,0.8,1611,-0.3,0,0,0,Autumn,No Holiday,Yes
8329,13/11/2018,1,5.6,68,0.5,1576,0.1,0,0,0,Autumn,No Holiday,Yes
8330,13/11/2018,2,5.6,64,0.1,1556,-0.6,0,0,0,Autumn,No Holiday,Yes
8331,13/11/2018,3,5.3,62,0,1485,-1.4,0,0,0,Autumn,No Holiday,Yes
8332,13/11/2018,4,4.9,63,0,1397,-1.5,0,0,0,Autumn,No Holiday,Yes
8333,13/11/2018,5,4.7,72,0,1310,0,0,0,0,Autumn,No Holiday,Yes
8334,13/11/2018,6,4.2,72,0.8,1326,-0.4,0,0,0,Autumn,No Holiday,Yes
8335,13/11/2018,7,4.4,72,0.3,1189,-0.2,0,0,0,Autumn,No Holiday,Yes
8336,13/11/2018,8,4.7,68,0.5,1032,-0.7,0.06,0,0,Autumn,No Holiday,Yes
8337,13/11/2018,9,6,59,1,719,-1.4,0.6,0,0,Autumn,No Holiday,Yes
8338,13/11/2018,10,9,51,0.9,706,-0.6,1.16,0,0,Autumn,No Holiday,Yes
8339,13/11/2018,11,11.4,46,0.8,876,0.1,1.57,0,0,Autumn,No Holiday,Yes
8340,13/11/2018,12,12.8,45,1.8,1170,1.1,1.82,0,0,Autumn,No Holiday,Yes
8341,13/11/2018,13,13.5,43,2.2,1687,1.1,1.92,0,0,Autumn,No Holiday,Yes
8342,13/11/2018,14,15,37,1.6,1703,0.4,1.82,0,0,Autumn,No Holiday,Yes
8343,13/11/2018,15,15.3,37,1.8,1774,0.6,1.5,0,0,Autumn,No Holiday,Yes
8344,13/11/2018,16,14.2,37,2,1783,-0.3,0.91,0,0,Autumn,No Holiday,Yes
8345,13/11/2018,17,12.7,40,1.9,1967,-0.5,0.33,0,0,Autumn,No Holiday,Yes
8346,13/11/2018,18,11.3,42,1.2,1846,-1.1,0.01,0,0,Autumn,No Holiday,Yes
8347,13/11/2018,19,9.8,45,1.3,1882,-1.5,0,0,0,Autumn,No Holiday,Yes
8348,13/11/2018,20,9.5,44,1.8,1991,-2.1,0,0,0,Autumn,No Holiday,Yes
8349,13/11/2018,21,8.5,42,1.1,2000,-3.7,0,0,0,Autumn,No Holiday,Yes
8350,13/11/2018,22,8.1,50,0.5,2000,-1.7,0,0,0,Autumn,No Holiday,Yes
8351,13/11/2018,23,7.6,49,0.6,1971,-2.4,0,0,0,Autumn,No Holiday,Yes
8352,14/11/2018,0,7,54,0.9,1862,-1.6,0,0,0,Autumn,No Holiday,Yes
8353,14/11/2018,1,6.5,60,0.5,1788,-0.7,0,0,0,Autumn,No Holiday,Yes
8354,14/11/2018,2,6.2,59,0.6,1584,-1.2,0,0,0,Autumn,No Holiday,Yes
8355,14/11/2018,3,6.1,66,0.5,1347,0.2,0,0,0,Autumn,No Holiday,Yes
8356,14/11/2018,4,5.6,70,0.6,1311,0.5,0,0,0,Autumn,No Holiday,Yes
8357,14/11/2018,5,5.3,72,0.2,1278,0.6,0,0,0,Autumn,No Holiday,Yes
8358,14/11/2018,6,5.1,76,1.1,1195,1.2,0,0,0,Autumn,No Holiday,Yes
8359,14/11/2018,7,5.2,78,0.3,1182,1.6,0,0,0,Autumn,No Holiday,Yes
8360,14/11/2018,8,5,77,1.5,1115,1.2,0.07,0,0,Autumn,No Holiday,Yes
8361,14/11/2018,9,7.1,61,0.5,1493,0,0.57,0,0,Autumn,No Holiday,Yes
8362,14/11/2018,10,9.6,53,1.4,1818,0.4,1.16,0,0,Autumn,No Holiday,Yes
8363,14/11/2018,11,12.1,49,0.8,1827,1.6,1.61,0,0,Autumn,No Holiday,Yes
8364,14/11/2018,12,14.2,45,0.9,1531,2.4,1.86,0,0,Autumn,No Holiday,Yes
8365,14/11/2018,13,15.7,41,2.3,1322,2.4,2.01,0,0,Autumn,No Holiday,Yes
8366,14/11/2018,14,16.1,32,1.4,1703,-0.6,1.8,0,0,Autumn,No Holiday,Yes
8367,14/11/2018,15,15.9,30,0.7,1823,-1.6,1.34,0,0,Autumn,No Holiday,Yes
8368,14/11/2018,16,15.2,40,2.7,1371,1.6,0.87,0,0,Autumn,No Holiday,Yes
8369,14/11/2018,17,13.6,46,1.8,1374,2.1,0.31,0,0,Autumn,No Holiday,Yes
8370,14/11/2018,18,12.2,47,2.6,1427,1.2,0.01,0,0,Autumn,No Holiday,Yes
8371,14/11/2018,19,11.5,52,2.4,1319,1.9,0,0,0,Autumn,No Holiday,Yes
8372,14/11/2018,20,10.5,52,1.4,1153,1,0,0,0,Autumn,No Holiday,Yes
8373,14/11/2018,21,9.8,52,0.5,1255,0.3,0,0,0,Autumn,No Holiday,Yes
8374,14/11/2018,22,8.8,58,0.5,1358,0.9,0,0,0,Autumn,No Holiday,Yes
8375,14/11/2018,23,8.4,65,0.8,1216,2.1,0,0,0,Autumn,No Holiday,Yes
8376,15/11/2018,0,7.7,67,0.4,1102,1.9,0,0,0,Autumn,No Holiday,Yes
8377,15/11/2018,1,7.3,64,0.3,1150,0.9,0,0,0,Autumn,No Holiday,Yes
8378,15/11/2018,2,7.1,68,0.6,1082,1.5,0,0,0,Autumn,No Holiday,Yes
8379,15/11/2018,3,6.5,75,1.1,970,2.3,0,0,0,Autumn,No Holiday,Yes
8380,15/11/2018,4,6.1,72,0.5,1052,1.4,0,0,0,Autumn,No Holiday,Yes
8381,15/11/2018,5,5.3,78,1.4,952,1.7,0,0,0,Autumn,No Holiday,Yes
8382,15/11/2018,6,4.9,76,1.1,800,1,0,0,0,Autumn,No Holiday,Yes
8383,15/11/2018,7,4.8,76,0.7,762,0.9,0,0,0,Autumn,No Holiday,Yes
8384,15/11/2018,8,5.3,75,1,808,1.2,0.1,0,0,Autumn,No Holiday,Yes
8385,15/11/2018,9,6.8,64,1,949,0.4,0.5,0,0,Autumn,No Holiday,Yes
8386,15/11/2018,10,8.6,57,0.6,1102,0.5,0.77,0,0,Autumn,No Holiday,Yes
8387,15/11/2018,11,11.1,47,1.2,1047,0.1,1.48,0,0,Autumn,No Holiday,Yes
8388,15/11/2018,12,13.8,43,0.9,987,1.4,1.61,0,0,Autumn,No Holiday,Yes
8389,15/11/2018,13,15.1,37,1.9,990,0.4,1.74,0,0,Autumn,No Holiday,Yes
8390,15/11/2018,14,15.1,33,1.5,1045,-1,1.31,0,0,Autumn,No Holiday,Yes
8391,15/11/2018,15,16.1,30,1,1125,-1.5,1.06,0,0,Autumn,No Holiday,Yes
8392,15/11/2018,16,15.4,34,1.4,1016,-0.4,0.68,0,0,Autumn,No Holiday,Yes
8393,15/11/2018,17,13.7,38,1.4,884,-0.3,0.29,0,0,Autumn,No Holiday,Yes
8394,15/11/2018,18,12.1,46,1.4,799,0.8,0.01,0,0,Autumn,No Holiday,Yes
8395,15/11/2018,19,11.2,46,1.4,869,0,0,0,0,Autumn,No Holiday,Yes
8396,15/11/2018,20,9.5,49,1.3,918,-0.7,0,0,0,Autumn,No Holiday,Yes
8397,15/11/2018,21,9.6,52,1.3,906,0.2,0,0,0,Autumn,No Holiday,Yes
8398,15/11/2018,22,8.7,53,0.4,764,-0.3,0,0,0,Autumn,No Holiday,Yes
8399,15/11/2018,23,8.1,57,0.7,752,0,0,0,0,Autumn,No Holiday,Yes
8400,16/11/2018,0,7.8,57,0.3,792,-0.2,0,0,0,Autumn,No Holiday,Yes
8401,16/11/2018,1,7.8,59,0.6,768,0.2,0,0,0,Autumn,No Holiday,Yes
8402,16/11/2018,2,7.7,63,1,704,1,0,0,0,Autumn,No Holiday,Yes
8403,16/11/2018,3,7.4,63,0.6,699,0.8,0,0,0,Autumn,No Holiday,Yes
8404,16/11/2018,4,7.1,64,0.6,663,0.7,0,0,0,Autumn,No Holiday,Yes
8405,16/11/2018,5,6.9,66,0.5,698,0.9,0,0,0,Autumn,No Holiday,Yes
8406,16/11/2018,6,7.1,65,0.5,713,0.9,0,0,0,Autumn,No Holiday,Yes
8407,16/11/2018,7,6.6,64,0.5,701,0.2,0,0,0,Autumn,No Holiday,Yes
8408,16/11/2018,8,7,64,0.8,683,0.6,0.03,0,0,Autumn,No Holiday,Yes
8409,16/11/2018,9,8.2,61,0.6,586,1.1,0.26,0,0,Autumn,No Holiday,Yes
8410,16/11/2018,10,9.4,55,0.1,570,0.7,0.49,0,0,Autumn,No Holiday,Yes
8411,16/11/2018,11,11.9,44,2.1,791,0,1.22,0,0,Autumn,No Holiday,Yes
8412,16/11/2018,12,13.4,48,2.3,962,2.5,1.64,0,0,Autumn,No Holiday,Yes
8413,16/11/2018,13,14.4,49,3.5,890,3.8,1.71,0,0,Autumn,No Holiday,Yes
8414,16/11/2018,14,13.3,53,2.6,761,3.9,1.34,0,0,Autumn,No Holiday,Yes
8415,16/11/2018,15,13.2,61,3.9,719,5.8,1.03,0,0,Autumn,No Holiday,Yes
8416,16/11/2018,16,11.8,66,3,687,5.6,0.44,0,0,Autumn,No Holiday,Yes
8417,16/11/2018,17,11,70,2.9,617,5.7,0.12,0,0,Autumn,No Holiday,Yes
8418,16/11/2018,18,9.9,74,2.6,492,5.4,0,0,0,Autumn,No Holiday,Yes
8419,16/11/2018,19,8.7,78,2.5,460,5,0,0,0,Autumn,No Holiday,Yes
8420,16/11/2018,20,7.6,76,3.9,603,3.6,0,0,0,Autumn,No Holiday,Yes
8421,16/11/2018,21,6.8,73,2.3,730,2.2,0,0,0,Autumn,No Holiday,Yes
8422,16/11/2018,22,6.2,72,1.4,848,1.5,0,0,0,Autumn,No Holiday,Yes
8423,16/11/2018,23,5,75,1.1,835,0.9,0,0,0,Autumn,No Holiday,Yes
8424,17/11/2018,0,4.2,76,2.1,870,0.3,0,0,0,Autumn,No Holiday,Yes
8425,17/11/2018,1,3.4,76,0.5,909,-0.4,0,0,0,Autumn,No Holiday,Yes
8426,17/11/2018,2,2.9,77,1.8,853,-0.7,0,0,0,Autumn,No Holiday,Yes
8427,17/11/2018,3,2.5,77,2.3,992,-1.1,0,0,0,Autumn,No Holiday,Yes
8428,17/11/2018,4,1.7,74,1.7,1226,-2.4,0,0,0,Autumn,No Holiday,Yes
8429,17/11/2018,5,1.1,75,0.6,1270,-2.8,0,0,0,Autumn,No Holiday,Yes
8430,17/11/2018,6,1,77,0.6,1259,-2.5,0,0,0,Autumn,No Holiday,Yes
8431,17/11/2018,7,0.8,77,0.9,1300,-2.7,0,0,0,Autumn,No Holiday,Yes
8432,17/11/2018,8,0.7,72,1,1397,-3.7,0.05,0,0,Autumn,No Holiday,Yes
8433,17/11/2018,9,2.2,53,0.5,1595,-6.4,0.62,0,0,Autumn,No Holiday,Yes
8434,17/11/2018,10,4.7,47,1.2,1788,-5.6,1.22,0,0,Autumn,No Holiday,Yes
8435,17/11/2018,11,7.8,38,0.8,1369,-5.6,1.65,0,0,Autumn,No Holiday,Yes
8436,17/11/2018,12,9.1,34,1,1802,-5.9,1.95,0,0,Autumn,No Holiday,Yes
8437,17/11/2018,13,10.9,32,2.1,1581,-5.1,1.85,0,0,Autumn,No Holiday,Yes
8438,17/11/2018,14,9.7,34,1.9,1786,-5.4,0.8,0,0,Autumn,No Holiday,Yes
8439,17/11/2018,15,8.9,34,2.9,1787,-6.1,0.52,0,0,Autumn,No Holiday,Yes
8440,17/11/2018,16,8.3,35,2.1,1987,-6.2,0.37,0,0,Autumn,No Holiday,Yes
8441,17/11/2018,17,7.7,34,2.6,2000,-7.2,0.13,0,0,Autumn,No Holiday,Yes
8442,17/11/2018,18,7.1,40,0.6,1995,-5.6,0.01,0,0,Autumn,No Holiday,Yes
8443,17/11/2018,19,6,44,0.8,1758,-5.3,0,0,0,Autumn,No Holiday,Yes
8444,17/11/2018,20,5.4,43,2.7,1913,-6.2,0,0,0,Autumn,No Holiday,Yes
8445,17/11/2018,21,5,42,1.5,1927,-6.8,0,0,0,Autumn,No Holiday,Yes
8446,17/11/2018,22,4.4,43,1.1,2000,-7.1,0,0,0,Autumn,No Holiday,Yes
8447,17/11/2018,23,4.1,46,1.8,2000,-6.5,0,0,0,Autumn,No Holiday,Yes
8448,18/11/2018,0,3.6,49,0.8,1990,-6.1,0,0,0,Autumn,No Holiday,Yes
8449,18/11/2018,1,3.2,54,1.2,1968,-5.2,0,0,0,Autumn,No Holiday,Yes
8450,18/11/2018,2,2.9,49,2,1989,-6.7,0,0,0,Autumn,No Holiday,Yes
8451,18/11/2018,3,2.5,49,0.2,2000,-7.1,0,0,0,Autumn,No Holiday,Yes
8452,18/11/2018,4,2.5,49,0.4,1988,-7.1,0,0,0,Autumn,No Holiday,Yes
8453,18/11/2018,5,2.3,53,0.6,1763,-6.3,0,0,0,Autumn,No Holiday,Yes
8454,18/11/2018,6,1.9,53,0.4,1813,-6.6,0,0,0,Autumn,No Holiday,Yes
8455,18/11/2018,7,2.1,56,0.7,1477,-5.7,0,0,0,Autumn,No Holiday,Yes
8456,18/11/2018,8,2.6,53,0.7,1548,-6,0.03,0,0,Autumn,No Holiday,Yes
8457,18/11/2018,9,3.5,53,1,1338,-5.2,0.22,0,0,Autumn,No Holiday,Yes
8458,18/11/2018,10,4.8,40,1.1,1676,-7.6,0.59,0,0,Autumn,No Holiday,Yes
8459,18/11/2018,11,7.6,35,0.8,1695,-6.9,1.25,0,0,Autumn,No Holiday,Yes
8460,18/11/2018,12,9.2,47,2.5,1910,-1.5,1.37,0,0,Autumn,No Holiday,Yes
8461,18/11/2018,13,9.9,37,2.1,1900,-4.1,1.32,0,0,Autumn,No Holiday,Yes
8462,18/11/2018,14,10.1,37,2.4,1723,-3.9,1.24,0,0,Autumn,No Holiday,Yes
8463,18/11/2018,15,9.6,34,1.6,1806,-5.5,0.73,0,0,Autumn,No Holiday,Yes
8464,18/11/2018,16,9.4,39,1.8,1704,-3.8,0.56,0,0,Autumn,No Holiday,Yes
8465,18/11/2018,17,8.7,42,1.7,1576,-3.5,0.18,0,0,Autumn,No Holiday,Yes
8466,18/11/2018,18,8.4,46,2.4,1823,-2.5,0,0,0,Autumn,No Holiday,Yes
8467,18/11/2018,19,7.9,45,1,1602,-3.3,0,0,0,Autumn,No Holiday,Yes
8468,18/11/2018,20,7.4,50,0.7,1499,-2.3,0,0,0,Autumn,No Holiday,Yes
8469,18/11/2018,21,7.1,52,0.8,1516,-2.1,0,0,0,Autumn,No Holiday,Yes
8470,18/11/2018,22,6.8,53,0.4,1498,-2.1,0,0,0,Autumn,No Holiday,Yes
8471,18/11/2018,23,7,55,0.2,1501,-1.4,0,0,0,Autumn,No Holiday,Yes
8472,19/11/2018,0,6.8,56,0.7,1505,-1.3,0,0,0,Autumn,No Holiday,Yes
8473,19/11/2018,1,5.9,60,0.5,1332,-1.2,0,0,0,Autumn,No Holiday,Yes
8474,19/11/2018,2,5.4,65,0.7,1230,-0.6,0,0,0,Autumn,No Holiday,Yes
8475,19/11/2018,3,4.8,65,0.8,1179,-1.2,0,0,0,Autumn,No Holiday,Yes
8476,19/11/2018,4,4.5,67,0.9,1175,-1.1,0,0,0,Autumn,No Holiday,Yes
8477,19/11/2018,5,4.1,70,1,1100,-0.8,0,0,0,Autumn,No Holiday,Yes
8478,19/11/2018,6,3.8,71,0.7,1071,-0.9,0,0,0,Autumn,No Holiday,Yes
8479,19/11/2018,7,3.4,73,1.1,1012,-0.9,0,0,0,Autumn,No Holiday,Yes
8480,19/11/2018,8,3.5,71,0.8,958,-1.2,0.06,0,0,Autumn,No Holiday,Yes
8481,19/11/2018,9,4.6,60,0.8,967,-2.5,0.46,0,0,Autumn,No Holiday,Yes
8482,19/11/2018,10,7.5,53,0.8,909,-1.4,1,0,0,Autumn,No Holiday,Yes
8483,19/11/2018,11,9.8,51,0.5,781,0.1,1.42,0,0,Autumn,No Holiday,Yes
8484,19/11/2018,12,10.3,38,1.2,1130,-3.4,1.08,0,0,Autumn,No Holiday,Yes
8485,19/11/2018,13,10.8,44,2,935,-0.9,1.01,0,0,Autumn,No Holiday,Yes
8486,19/11/2018,14,10.6,34,2.8,920,-4.6,1.07,0,0,Autumn,No Holiday,Yes
8487,19/11/2018,15,11.1,35,1.9,861,-3.8,1.11,0,0,Autumn,No Holiday,Yes
8488,19/11/2018,16,9.7,43,2.7,1012,-2.2,0.37,0,0,Autumn,No Holiday,Yes
8489,19/11/2018,17,8.7,48,1.7,965,-1.7,0.25,0,0,Autumn,No Holiday,Yes
8490,19/11/2018,18,7.5,48,2.4,1079,-2.8,0,0,0,Autumn,No Holiday,Yes
8491,19/11/2018,19,6.8,52,0.8,960,-2.3,0,0,0,Autumn,No Holiday,Yes
8492,19/11/2018,20,6,50,1.5,931,-3.6,0,0,0,Autumn,No Holiday,Yes
8493,19/11/2018,21,5.8,44,2.2,1205,-5.5,0,0,0,Autumn,No Holiday,Yes
8494,19/11/2018,22,5.3,39,2.3,1512,-7.5,0,0,0,Autumn,No Holiday,Yes
8495,19/11/2018,23,4.2,42,2.2,1360,-7.6,0,0,0,Autumn,No Holiday,Yes
8496,20/11/2018,0,3.8,42,1.7,1458,-7.9,0,0,0,Autumn,No Holiday,Yes
8497,20/11/2018,1,2.9,43,1,1750,-8.4,0,0,0,Autumn,No Holiday,Yes
8498,20/11/2018,2,2.6,46,1.5,1811,-7.8,0,0,0,Autumn,No Holiday,Yes
8499,20/11/2018,3,1.6,43,1.1,1981,-9.6,0,0,0,Autumn,No Holiday,Yes
8500,20/11/2018,4,1.3,48,0.5,2000,-8.5,0,0,0,Autumn,No Holiday,Yes
8501,20/11/2018,5,0.7,49,0.4,1998,-8.8,0,0,0,Autumn,No Holiday,Yes
8502,20/11/2018,6,0.7,50,1,2000,-8.5,0,0,0,Autumn,No Holiday,Yes
8503,20/11/2018,7,0.5,53,1.1,2000,-7.9,0,0,0,Autumn,No Holiday,Yes
8504,20/11/2018,8,0.3,53,0.9,1971,-8.1,0.05,0,0,Autumn,No Holiday,Yes
8505,20/11/2018,9,2.3,43,1.2,1892,-9,0.52,0,0,Autumn,No Holiday,Yes
8506,20/11/2018,10,5.1,33,1.4,1842,-9.8,1.1,0,0,Autumn,No Holiday,Yes
8507,20/11/2018,11,7.5,29,1.3,1926,-9.4,1.55,0,0,Autumn,No Holiday,Yes
8508,20/11/2018,12,10.1,23,1.8,1745,-10.1,1.82,0,0,Autumn,No Holiday,Yes
8509,20/11/2018,13,11.6,20,1.3,1821,-10.6,1.87,0,0,Autumn,No Holiday,Yes
8510,20/11/2018,14,12.3,16,2.5,1797,-12.8,1.69,0,0,Autumn,No Holiday,Yes
8511,20/11/2018,15,11.9,18,3.3,1848,-11.7,1.32,0,0,Autumn,No Holiday,Yes
8512,20/11/2018,16,11.3,21,2.8,1925,-10.2,0.82,0,0,Autumn,No Holiday,Yes
8513,20/11/2018,17,9.8,28,2.4,1983,-7.8,0.29,0,0,Autumn,No Holiday,Yes
8514,20/11/2018,18,9.1,31,2,1932,-7.1,0,0,0,Autumn,No Holiday,Yes
8515,20/11/2018,19,8.7,34,2.2,1857,-6.3,0,0,0,Autumn,No Holiday,Yes
8516,20/11/2018,20,8.5,32,2.6,1789,-7.2,0,0,0,Autumn,No Holiday,Yes
8517,20/11/2018,21,8.8,37,3.8,1750,-5.1,0,0,0,Autumn,No Holiday,Yes
8518,20/11/2018,22,8.9,40,3.4,1810,-3.9,0,0,0,Autumn,No Holiday,Yes
8519,20/11/2018,23,9.3,43,3.5,1807,-2.6,0,0,0,Autumn,No Holiday,Yes
8520,21/11/2018,0,7.2,74,1.2,772,2.8,0,0.2,0,Autumn,No Holiday,Yes
8521,21/11/2018,1,6.9,86,0.7,533,4.7,0,0,0,Autumn,No Holiday,Yes
8522,21/11/2018,2,6.9,87,0.7,822,4.8,0,0,0,Autumn,No Holiday,Yes
8523,21/11/2018,3,6.5,87,1,710,4.4,0,1,0,Autumn,No Holiday,Yes
8524,21/11/2018,4,6.7,87,1.2,580,4.6,0,0,0,Autumn,No Holiday,Yes
8525,21/11/2018,5,6.8,86,0.5,692,4.6,0,0,0,Autumn,No Holiday,Yes
8526,21/11/2018,6,6.7,86,0.3,593,4.5,0,0,0,Autumn,No Holiday,Yes
8527,21/11/2018,7,6.5,85,0.8,536,4.1,0,0,0,Autumn,No Holiday,Yes
8528,21/11/2018,8,6.4,86,0.9,450,4.2,0.03,0,0,Autumn,No Holiday,Yes
8529,21/11/2018,9,6.4,53,0.7,1486,-2.5,0.21,0,0,Autumn,No Holiday,Yes
8530,21/11/2018,10,6.9,39,0.5,1977,-6.1,0.36,0,0,Autumn,No Holiday,Yes
8531,21/11/2018,11,7.4,30,1.4,2000,-9,0.44,0,0,Autumn,No Holiday,Yes
8532,21/11/2018,12,7.7,34,0.6,1969,-7.2,0.49,0,0,Autumn,No Holiday,Yes
8533,21/11/2018,13,8,35,1.3,1895,-6.5,0.5,0,0,Autumn,No Holiday,Yes
8534,21/11/2018,14,6.7,47,2.4,2000,-3.8,0.42,0,0,Autumn,No Holiday,Yes
8535,21/11/2018,15,5.7,53,2,2000,-3.1,0.22,0,0,Autumn,No Holiday,Yes
8536,21/11/2018,16,6.1,53,0.5,2000,-2.7,0.21,0,0,Autumn,No Holiday,Yes
8537,21/11/2018,17,5.7,61,2.2,1987,-1.2,0.07,0,0,Autumn,No Holiday,Yes
8538,21/11/2018,18,5.4,58,0.2,2000,-2.2,0,0,0,Autumn,No Holiday,Yes
8539,21/11/2018,19,5.1,50,0.7,2000,-4.4,0,0,0,Autumn,No Holiday,Yes
8540,21/11/2018,20,5.1,43,0.7,1928,-6.4,0,0,0,Autumn,No Holiday,Yes
8541,21/11/2018,21,4.6,44,1.1,1859,-6.6,0,0,0,Autumn,No Holiday,Yes
8542,21/11/2018,22,4.6,48,2.2,1782,-5.4,0,0,0,Autumn,No Holiday,Yes
8543,21/11/2018,23,3.9,46,2,1904,-6.6,0,0,0,Autumn,No Holiday,Yes
8544,22/11/2018,0,3.1,42,3.4,1995,-8.5,0,0,0,Autumn,No Holiday,Yes
8545,22/11/2018,1,2.1,39,3.2,1299,-10.4,0,0,0,Autumn,No Holiday,Yes
8546,22/11/2018,2,1.3,44,1.9,2000,-9.6,0,0,0,Autumn,No Holiday,Yes
8547,22/11/2018,3,0.6,42,1.1,2000,-10.8,0,0,0,Autumn,No Holiday,Yes
8548,22/11/2018,4,0.5,39,1.6,2000,-11.8,0,0,0,Autumn,No Holiday,Yes
8549,22/11/2018,5,-0.4,39,0.8,2000,-12.6,0,0,0,Autumn,No Holiday,Yes
8550,22/11/2018,6,-1,41,0.7,2000,-12.6,0,0,0,Autumn,No Holiday,Yes
8551,22/11/2018,7,-1,43,1.8,2000,-12,0,0,0,Autumn,No Holiday,Yes
8552,22/11/2018,8,-1.2,33,0.5,2000,-15.4,0.04,0,0,Autumn,No Holiday,Yes
8553,22/11/2018,9,0.2,28,1.9,1932,-16.2,0.57,0,0,Autumn,No Holiday,Yes
8554,22/11/2018,10,2.9,22,2,1989,-16.7,1.18,0,0,Autumn,No Holiday,Yes
8555,22/11/2018,11,5.1,21,3.2,1965,-15.4,1.63,0,0,Autumn,No Holiday,Yes
8556,22/11/2018,12,5.9,23,2.8,1985,-13.7,1.88,0,0,Autumn,No Holiday,Yes
8557,22/11/2018,13,6.5,26,2.4,1974,-11.6,1.84,0,0,Autumn,No Holiday,Yes
8558,22/11/2018,14,6.7,27,3.1,1976,-11,1.66,0,0,Autumn,No Holiday,Yes
8559,22/11/2018,15,6.9,31,2.9,1982,-9.1,1.21,0,0,Autumn,No Holiday,Yes
8560,22/11/2018,16,5.9,34,2.9,1985,-8.7,0.55,0,0,Autumn,No Holiday,Yes
8561,22/11/2018,17,4.9,41,3.3,1985,-7.2,0.25,0,0,Autumn,No Holiday,Yes
8562,22/11/2018,18,4.1,46,2.7,2000,-6.5,0.01,0,0,Autumn,No Holiday,Yes
8563,22/11/2018,19,3.6,48,2.6,2000,-6.4,0,0,0,Autumn,No Holiday,Yes
8564,22/11/2018,20,3.1,42,2.4,2000,-8.5,0,0,0,Autumn,No Holiday,Yes
8565,22/11/2018,21,2.2,28,3.2,2000,-14.4,0,0,0,Autumn,No Holiday,Yes
8566,22/11/2018,22,1.1,33,2.5,2000,-13.4,0,0,0,Autumn,No Holiday,Yes
8567,22/11/2018,23,0.4,37,2.9,2000,-12.6,0,0,0,Autumn,No Holiday,Yes
8568,23/11/2018,0,-0.3,41,3.1,2000,-11.9,0,0,0,Autumn,No Holiday,Yes
8569,23/11/2018,1,-0.6,44,2.3,2000,-11.3,0,0,0,Autumn,No Holiday,Yes
8570,23/11/2018,2,-1,43,3.1,2000,-12,0,0,0,Autumn,No Holiday,Yes
8571,23/11/2018,3,-1.2,45,1.1,2000,-11.6,0,0,0,Autumn,No Holiday,Yes
8572,23/11/2018,4,-2,42,0.7,2000,-13.2,0,0,0,Autumn,No Holiday,Yes
8573,23/11/2018,5,-2.4,37,0.5,2000,-15.1,0,0,0,Autumn,No Holiday,Yes
8574,23/11/2018,6,-2.6,40,1.4,2000,-14.3,0,0,0,Autumn,No Holiday,Yes
8575,23/11/2018,7,-2.8,42,1.3,2000,-13.9,0,0,0,Autumn,No Holiday,Yes
8576,23/11/2018,8,-3,43,1.1,2000,-13.8,0.03,0,0,Autumn,No Holiday,Yes
8577,23/11/2018,9,-1.5,33,0.9,1962,-15.7,0.57,0,0,Autumn,No Holiday,Yes
8578,23/11/2018,10,1.3,27,0.9,1856,-15.6,1.13,0,0,Autumn,No Holiday,Yes
8579,23/11/2018,11,4.3,25,2,1958,-14,1.56,0,0,Autumn,No Holiday,Yes
8580,23/11/2018,12,5.5,20,1.4,1992,-15.7,1.85,0,0,Autumn,No Holiday,Yes
8581,23/11/2018,13,6.5,18,2.2,1984,-16.1,1.94,0,0,Autumn,No Holiday,Yes
8582,23/11/2018,14,6.3,16,2.9,2000,-17.7,1.67,0,0,Autumn,No Holiday,Yes
8583,23/11/2018,15,6.4,16,2,2000,-17.6,1.01,0,0,Autumn,No Holiday,Yes
8584,23/11/2018,16,6.3,17,1.5,2000,-17,0.73,0,0,Autumn,No Holiday,Yes
8585,23/11/2018,17,5.4,19,0.5,2000,-16.4,0.27,0,0,Autumn,No Holiday,Yes
8586,23/11/2018,18,3.9,23,1,2000,-15.4,0,0,0,Autumn,No Holiday,Yes
8587,23/11/2018,19,2.9,26,1.1,2000,-14.7,0,0,0,Autumn,No Holiday,Yes
8588,23/11/2018,20,2.7,27,1.2,2000,-14.4,0,0,0,Autumn,No Holiday,Yes
8589,23/11/2018,21,2.2,28,0.8,2000,-14.4,0,0,0,Autumn,No Holiday,Yes
8590,23/11/2018,22,2,30,1.3,1995,-13.8,0,0,0,Autumn,No Holiday,Yes
8591,23/11/2018,23,2.1,32,1.5,1998,-12.9,0,0,0,Autumn,No Holiday,Yes
8592,24/11/2018,0,2.4,32,1.7,2000,-12.6,0,0,0,Autumn,No Holiday,Yes
8593,24/11/2018,1,2.4,30,1.3,2000,-13.4,0,0,0,Autumn,No Holiday,Yes
8594,24/11/2018,2,2.5,29,1.8,2000,-13.7,0,0,0,Autumn,No Holiday,Yes
8595,24/11/2018,3,2.8,28,1.6,2000,-13.9,0,0,0,Autumn,No Holiday,Yes
8596,24/11/2018,4,3,26,1.6,2000,-14.6,0,0,0,Autumn,No Holiday,Yes
8597,24/11/2018,5,3.2,27,1.6,2000,-14,0,0,0,Autumn,No Holiday,Yes
8598,24/11/2018,6,3.7,25,2.3,2000,-14.5,0,0,0,Autumn,No Holiday,Yes
8599,24/11/2018,7,1.2,87,1.9,77,-0.7,0,0,1.3,Autumn,No Holiday,Yes
8600,24/11/2018,8,0.4,96,3.1,33,-0.1,0,0,4,Autumn,No Holiday,Yes
8601,24/11/2018,9,0.3,97,3,34,-0.1,0,9.1,7.1,Autumn,No Holiday,Yes
8602,24/11/2018,10,0.4,97,1.8,207,0,0,0,8.8,Autumn,No Holiday,Yes
8603,24/11/2018,11,1.2,97,2.3,975,0.7,0.07,0,8.8,Autumn,No Holiday,Yes
8604,24/11/2018,12,2.5,84,1.9,1538,0,0.4,1.8,7,Autumn,No Holiday,Yes
8605,24/11/2018,13,2.6,83,1.9,1774,0,0.84,0,6,Autumn,No Holiday,Yes
8606,24/11/2018,14,3,82,1.7,1589,0.2,0.55,0,5,Autumn,No Holiday,Yes
8607,24/11/2018,15,3.7,78,2,1314,0.2,0.81,0,4.1,Autumn,No Holiday,Yes
8608,24/11/2018,16,3.5,82,1.6,1092,0.7,0.51,0,3.6,Autumn,No Holiday,Yes
8609,24/11/2018,17,2.9,85,1.6,1000,0.6,0.2,0,3.5,Autumn,No Holiday,Yes
8610,24/11/2018,18,2.6,86,1.1,834,0.4,0,0,3.5,Autumn,No Holiday,Yes
8611,24/11/2018,19,2.6,85,1.2,797,0.3,0,0,3.3,Autumn,No Holiday,Yes
8612,24/11/2018,20,2.6,86,1.7,676,0.4,0,0,3.3,Autumn,No Holiday,Yes
8613,24/11/2018,21,2.6,85,1.1,674,0.3,0,0,3.2,Autumn,No Holiday,Yes
8614,24/11/2018,22,2.7,85,1.1,580,0.4,0,0,3.2,Autumn,No Holiday,Yes
8615,24/11/2018,23,2.8,86,1.2,476,0.6,0,0,3,Autumn,No Holiday,Yes
8616,25/11/2018,0,2.7,86,1.2,422,0.5,0,0,3,Autumn,No Holiday,Yes
8617,25/11/2018,1,2.7,86,1,460,0.5,0,0,2.9,Autumn,No Holiday,Yes
8618,25/11/2018,2,2.8,86,0.8,402,0.6,0,0,2.9,Autumn,No Holiday,Yes
8619,25/11/2018,3,2.6,88,0.9,319,0.8,0,0,2.8,Autumn,No Holiday,Yes
8620,25/11/2018,4,2.4,89,0.7,321,0.7,0,0,2.6,Autumn,No Holiday,Yes
8621,25/11/2018,5,2.1,94,0.4,248,1.2,0,0,2.5,Autumn,No Holiday,Yes
8622,25/11/2018,6,1.7,95,0.7,220,0.9,0,0,2.5,Autumn,No Holiday,Yes
8623,25/11/2018,7,1.3,96,0.9,198,0.7,0,0,2.5,Autumn,No Holiday,Yes
8624,25/11/2018,8,1.4,96,1,212,0.8,0.04,0,2.5,Autumn,No Holiday,Yes
8625,25/11/2018,9,2.3,88,1.1,286,0.5,0.41,0,2.5,Autumn,No Holiday,Yes
8626,25/11/2018,10,4,76,1.3,404,0.1,0.93,0,2.4,Autumn,No Holiday,Yes
8627,25/11/2018,11,6,66,0.9,573,0.1,1.37,0,2.3,Autumn,No Holiday,Yes
8628,25/11/2018,12,6.9,59,0.9,669,-0.5,1.31,0,2.2,Autumn,No Holiday,Yes
8629,25/11/2018,13,8.8,53,1.5,778,-0.2,1.43,0,1.8,Autumn,No Holiday,Yes
8630,25/11/2018,14,9.2,52,1.3,765,-0.1,1.01,0,1.3,Autumn,No Holiday,Yes
8631,25/11/2018,15,9.5,54,1.3,675,0.6,0.76,0,1.1,Autumn,No Holiday,Yes
8632,25/11/2018,16,9.5,56,1.1,678,1.1,0.54,0,0.8,Autumn,No Holiday,Yes
8633,25/11/2018,17,9,59,0.7,677,1.4,0.1,0,0.4,Autumn,No Holiday,Yes
8634,25/11/2018,18,7.3,72,0.7,530,2.5,0,0,0.4,Autumn,No Holiday,Yes
8635,25/11/2018,19,6.3,73,1.1,524,1.8,0,0,0.4,Autumn,No Holiday,Yes
8636,25/11/2018,20,5.5,77,0.7,490,1.7,0,0,0.4,Autumn,No Holiday,Yes
8637,25/11/2018,21,4.7,81,1,437,1.7,0,0,0.4,Autumn,No Holiday,Yes
8638,25/11/2018,22,4.2,82,0.9,405,1.3,0,0,0.4,Autumn,No Holiday,Yes
8639,25/11/2018,23,3.8,83,1.1,390,1.1,0,0,0.4,Autumn,No Holiday,Yes
8640,26/11/2018,0,3.3,85,1.1,351,1,0,0,0.3,Autumn,No Holiday,Yes
8641,26/11/2018,1,3.1,84,1,365,0.6,0,0,0.3,Autumn,No Holiday,Yes
8642,26/11/2018,2,2.8,87,1.1,321,0.8,0,0,0.3,Autumn,No Holiday,Yes
8643,26/11/2018,3,2.4,90,1,269,0.9,0,0,0.3,Autumn,No Holiday,Yes
8644,26/11/2018,4,2.2,93,1.1,265,1.1,0,0,0.3,Autumn,No Holiday,Yes
8645,26/11/2018,5,2.1,88,1.4,323,0.3,0,0,0.3,Autumn,No Holiday,Yes
8646,26/11/2018,6,1.8,88,1.1,313,0,0,0,0.3,Autumn,No Holiday,Yes
8647,26/11/2018,7,1.7,89,1.3,295,0,0,0,0.3,Autumn,No Holiday,Yes
8648,26/11/2018,8,2,84,1.1,396,-0.4,0.03,0,0.3,Autumn,No Holiday,Yes
8649,26/11/2018,9,3.1,77,0.9,457,-0.5,0.4,0,0.2,Autumn,No Holiday,Yes
8650,26/11/2018,10,5.1,70,1.2,498,0,0.93,0,0,Autumn,No Holiday,Yes
8651,26/11/2018,11,7.2,66,1.5,542,1.2,1.41,0,0,Autumn,No Holiday,Yes
8652,26/11/2018,12,9.1,57,1.1,562,1,1.69,0,0,Autumn,No Holiday,Yes
8653,26/11/2018,13,11.7,50,1.4,609,1.6,1.74,0,0,Autumn,No Holiday,Yes
8654,26/11/2018,14,12.8,47,1.2,648,1.7,1.59,0,0,Autumn,No Holiday,Yes
8655,26/11/2018,15,13.2,43,1.1,714,0.8,1.26,0,0,Autumn,No Holiday,Yes
8656,26/11/2018,16,13.2,44,1.6,710,1.1,0.76,0,0,Autumn,No Holiday,Yes
8657,26/11/2018,17,11.4,48,0.4,706,0.7,0.24,0,0,Autumn,No Holiday,Yes
8658,26/11/2018,18,9.5,56,0.5,628,1.1,0,0,0,Autumn,No Holiday,Yes
8659,26/11/2018,19,8.4,61,0.3,573,1.3,0,0,0,Autumn,No Holiday,Yes
8660,26/11/2018,20,7.3,66,0.5,516,1.3,0,0,0,Autumn,No Holiday,Yes
8661,26/11/2018,21,6.7,71,0.9,461,1.8,0,0,0,Autumn,No Holiday,Yes
8662,26/11/2018,22,6.2,70,0.4,474,1.1,0,0,0,Autumn,No Holiday,Yes
8663,26/11/2018,23,5.4,78,1.5,404,1.8,0,0,0,Autumn,No Holiday,Yes
8664,27/11/2018,0,4.9,79,0.5,391,1.5,0,0,0,Autumn,No Holiday,Yes
8665,27/11/2018,1,4.5,82,0.4,350,1.6,0,0,0,Autumn,No Holiday,Yes
8666,27/11/2018,2,3.9,85,0.8,299,1.6,0,0,0,Autumn,No Holiday,Yes
8667,27/11/2018,3,3.5,86,1.4,281,1.3,0,0,0,Autumn,No Holiday,Yes
8668,27/11/2018,4,3.1,88,1,270,1.2,0,0,0,Autumn,No Holiday,Yes
8669,27/11/2018,5,3.6,84,0.6,315,1.1,0,0,0,Autumn,No Holiday,Yes
8670,27/11/2018,6,3.8,83,0.7,337,1.1,0,0,0,Autumn,No Holiday,Yes
8671,27/11/2018,7,3.6,83,0.9,350,0.9,0,0,0,Autumn,No Holiday,Yes
8672,27/11/2018,8,4.2,78,1.2,362,0.6,0.02,0,0,Autumn,No Holiday,Yes
8673,27/11/2018,9,5,75,0.3,390,0.9,0.12,0,0,Autumn,No Holiday,Yes
8674,27/11/2018,10,6.4,71,1,385,1.5,0.37,0,0,Autumn,No Holiday,Yes
8675,27/11/2018,11,7.9,64,1.2,383,1.4,0.87,0,0,Autumn,No Holiday,Yes
8676,27/11/2018,12,9.3,61,1.5,390,2.1,0.85,0,0,Autumn,No Holiday,Yes
8677,27/11/2018,13,11,60,0.9,411,3.5,0.85,0,0,Autumn,No Holiday,Yes
8678,27/11/2018,14,11.6,70,1.5,388,6.3,0.45,0,0,Autumn,No Holiday,Yes
8679,27/11/2018,15,12.5,70,2.1,360,7.1,0.68,0,0,Autumn,No Holiday,Yes
8680,27/11/2018,16,12,74,2.1,316,7.5,0.29,0,0,Autumn,No Holiday,Yes
8681,27/11/2018,17,11.1,72,2.3,277,6.2,0.12,0,0,Autumn,No Holiday,Yes
8682,27/11/2018,18,10.2,74,1.2,289,5.7,0,0,0,Autumn,No Holiday,Yes
8683,27/11/2018,19,9.3,52,2.7,482,0,0,0,0,Autumn,No Holiday,Yes
8684,27/11/2018,20,8.3,39,1.6,560,-4.8,0,0,0,Autumn,No Holiday,Yes
8685,27/11/2018,21,7.5,35,1.8,656,-7,0,0,0,Autumn,No Holiday,Yes
8686,27/11/2018,22,6.6,33,2.1,722,-8.5,0,0,0,Autumn,No Holiday,Yes
8687,27/11/2018,23,5.8,34,2.6,763,-8.8,0,0,0,Autumn,No Holiday,Yes
8688,28/11/2018,0,5.1,36,2.2,774,-8.7,0,0,0,Autumn,No Holiday,Yes
8689,28/11/2018,1,4.9,26,2.6,992,-13,0,0,0,Autumn,No Holiday,Yes
8690,28/11/2018,2,4.1,34,1.3,928,-10.3,0,0,0,Autumn,No Holiday,Yes
8691,28/11/2018,3,3.5,38,1.6,907,-9.5,0,0,0,Autumn,No Holiday,Yes
8692,28/11/2018,4,3.9,26,2.4,1071,-13.9,0,0,0,Autumn,No Holiday,Yes
8693,28/11/2018,5,3,34,1.1,1032,-11.3,0,0,0,Autumn,No Holiday,Yes
8694,28/11/2018,6,2.6,33,1.5,1185,-12,0,0,0,Autumn,No Holiday,Yes
8695,28/11/2018,7,2.5,24,0.2,1306,-16,0,0,0,Autumn,No Holiday,Yes
8696,28/11/2018,8,2.1,29,1.1,1337,-14.1,0.02,0,0,Autumn,No Holiday,Yes
8697,28/11/2018,9,3,30,1.3,1242,-12.9,0.3,0,0,Autumn,No Holiday,Yes
8698,28/11/2018,10,4.4,23,1.6,1201,-14.9,0.7,0,0,Autumn,No Holiday,Yes
8699,28/11/2018,11,5.7,15,1.1,1419,-19,0.98,0,0,Autumn,No Holiday,Yes
8700,28/11/2018,12,7.9,14,1.7,1688,-18,1.81,0,0,Autumn,No Holiday,Yes
8701,28/11/2018,13,9.2,13,1.6,1776,-17.8,1.86,0,0,Autumn,No Holiday,Yes
8702,28/11/2018,14,10.3,14,1.1,1880,-16.1,1.7,0,0,Autumn,No Holiday,Yes
8703,28/11/2018,15,10.5,16,2.7,1509,-14.3,1.29,0,0,Autumn,No Holiday,Yes
8704,28/11/2018,16,9.6,17,3,1706,-14.3,0.77,0,0,Autumn,No Holiday,Yes
8705,28/11/2018,17,7.6,23,2.9,1678,-12.2,0.25,0,0,Autumn,No Holiday,Yes
8706,28/11/2018,18,6.3,25,2,1653,-12.3,0,0,0,Autumn,No Holiday,Yes
8707,28/11/2018,19,6,24,3,1861,-13,0,0,0,Autumn,No Holiday,Yes
8708,28/11/2018,20,4.8,29,0.6,1756,-11.7,0,0,0,Autumn,No Holiday,Yes
8709,28/11/2018,21,4.2,31,1.1,1741,-11.4,0,0,0,Autumn,No Holiday,Yes
8710,28/11/2018,22,3.2,34,1.3,1787,-11.1,0,0,0,Autumn,No Holiday,Yes
8711,28/11/2018,23,2.9,31,1.7,1869,-12.6,0,0,0,Autumn,No Holiday,Yes
8712,29/11/2018,0,2.2,30,0.7,1879,-13.6,0,0,0,Autumn,No Holiday,Yes
8713,29/11/2018,1,1.9,32,1.4,1999,-13,0,0,0,Autumn,No Holiday,Yes
8714,29/11/2018,2,2.1,28,0.4,1981,-14.5,0,0,0,Autumn,No Holiday,Yes
8715,29/11/2018,3,1.9,33,0.9,1994,-12.7,0,0,0,Autumn,No Holiday,Yes
8716,29/11/2018,4,2.1,33,0.5,1981,-12.5,0,0,0,Autumn,No Holiday,Yes
8717,29/11/2018,5,1.8,34,0.9,1990,-12.4,0,0,0,Autumn,No Holiday,Yes
8718,29/11/2018,6,1.1,39,1.3,1857,-11.3,0,0,0,Autumn,No Holiday,Yes
8719,29/11/2018,7,0.8,41,0.6,1298,-10.9,0,0,0,Autumn,No Holiday,Yes
8720,29/11/2018,8,0.8,44,1.7,1439,-10,0.02,0,0,Autumn,No Holiday,Yes
8721,29/11/2018,9,1.8,37,0.9,1310,-11.3,0.31,0,0,Autumn,No Holiday,Yes
8722,29/11/2018,10,3.9,28,0.6,1627,-12.9,0.49,0,0,Autumn,No Holiday,Yes
8723,29/11/2018,11,5.2,26,0.5,1471,-12.7,0.64,0,0,Autumn,No Holiday,Yes
8724,29/11/2018,12,5.6,27,0.3,1522,-11.9,0.34,0,0,Autumn,No Holiday,Yes
8725,29/11/2018,13,5.3,26,2.1,1604,-12.7,0.21,0,0,Autumn,No Holiday,Yes
8726,29/11/2018,14,6,27,0.6,1452,-11.6,0.34,0,0,Autumn,No Holiday,Yes
8727,29/11/2018,15,6.5,32,2.6,1321,-9,0.35,0,0,Autumn,No Holiday,Yes
8728,29/11/2018,16,5.8,39,2.6,1489,-7.1,0.1,0,0,Autumn,No Holiday,Yes
8729,29/11/2018,17,5.8,38,1.3,1674,-7.4,0.01,0,0,Autumn,No Holiday,Yes
8730,29/11/2018,18,0,46,0.9,1566,-4.8,0,0,0,Autumn,No Holiday,Yes
8731,29/11/2018,19,5.2,48,1.9,1590,-4.9,0,0,0,Autumn,No Holiday,Yes
8732,29/11/2018,20,4.1,54,1.3,1434,-4.3,0,0,0,Autumn,No Holiday,Yes
8733,29/11/2018,21,3.8,55,2.1,1231,-4.4,0,0,0,Autumn,No Holiday,Yes
8734,29/11/2018,22,3,59,1.1,1218,-4.2,0,0,0,Autumn,No Holiday,Yes
8735,29/11/2018,23,2.6,56,1.9,1394,-5.3,0,0,0,Autumn,No Holiday,Yes
8736,30/11/2018,0,1.8,62,1.6,1411,-4.7,0,0,0,Autumn,No Holiday,Yes
8737,30/11/2018,1,1.3,63,2,1379,-4.9,0,0,0,Autumn,No Holiday,Yes
8738,30/11/2018,2,0.6,66,0.5,1368,-5,0,0,0,Autumn,No Holiday,Yes
8739,30/11/2018,3,-0.1,69,0.9,1338,-5.1,0,0,0,Autumn,No Holiday,Yes
8740,30/11/2018,4,-0.5,71,0.4,1345,-5.1,0,0,0,Autumn,No Holiday,Yes
8741,30/11/2018,5,-0.7,66,0.5,1336,-6.2,0,0,0,Autumn,No Holiday,Yes
8742,30/11/2018,6,-0.8,68,0.8,1322,-5.9,0,0,0,Autumn,No Holiday,Yes
8743,30/11/2018,7,-1.2,70,0.8,1351,-5.9,0,0,0,Autumn,No Holiday,Yes
8744,30/11/2018,8,-1.5,68,1.1,1286,-6.6,0.02,0,0,Autumn,No Holiday,Yes
8745,30/11/2018,9,-0.4,57,0.6,1270,-7.8,0.45,0,0,Autumn,No Holiday,Yes
8746,30/11/2018,10,1.9,51,0.8,1029,-7.1,1.01,0,0,Autumn,No Holiday,Yes
8747,30/11/2018,11,5.3,43,1.8,1177,-6.2,1.38,0,0,Autumn,No Holiday,Yes
8748,30/11/2018,12,6.6,35,1.3,1409,-7.8,1.7,0,0,Autumn,No Holiday,Yes
8749,30/11/2018,13,7.1,24,2.8,1838,-12.1,1.83,0,0,Autumn,No Holiday,Yes
8750,30/11/2018,14,7.8,20,2.2,2000,-13.8,1.67,0,0,Autumn,No Holiday,Yes
8751,30/11/2018,15,7,20,3.3,1994,-14.4,1.21,0,0,Autumn,No Holiday,Yes
8752,30/11/2018,16,7.2,23,1.5,1945,-12.6,0.72,0,0,Autumn,No Holiday,Yes
8753,30/11/2018,17,6,29,2.1,1877,-10.7,0.23,0,0,Autumn,No Holiday,Yes
8754,30/11/2018,18,4.7,34,1.9,1661,-9.8,0,0,0,Autumn,No Holiday,Yes
8755,30/11/2018,19,4.2,34,2.6,1894,-10.3,0,0,0,Autumn,No Holiday,Yes
8756,30/11/2018,20,3.4,37,2.3,2000,-9.9,0,0,0,Autumn,No Holiday,Yes
8757,30/11/2018,21,2.6,39,0.3,1968,-9.9,0,0,0,Autumn,No Holiday,Yes
8758,30/11/2018,22,2.1,41,1,1859,-9.8,0,0,0,Autumn,No Holiday,Yes
8759,30/11/2018,23,1.9,43,1.3,1909,-9.3,0,0,0,Autumn,No Holiday,Yes